%YAML 1.1
%TAG !u! tag:unity3d.com,2011:
--- !u!21 &2100000
Material:
  serializedVersion: 6
  m_ObjectHideFlags: 0
  m_CorrespondingSourceObject: {fileID: 0}
  m_PrefabInstance: {fileID: 0}
  m_PrefabAsset: {fileID: 0}
  m_Name: HonXanh
  m_Shader: {fileID: 4800000, guid: 0b4002bddac1f2e4585ed70d2f0d218b, type: 3}
  m_ShaderKeywords: 
  m_LightmapFlags: 4
  m_EnableInstancingVariants: 0
  m_DoubleSidedGI: 0
  m_CustomRenderQueue: -1
  stringTagMap: {}
  disabledShaderPasses: []
  m_SavedProperties:
    serializedVersion: 3
    m_TexEnvs:
    - Texture2D_EEAD67A0:
        m_Texture: {fileID: 2800000, guid: be7c619f327c9f140b38796fe6df859a, type: 3}
        m_Scale: {x: 1, y: 1}
        m_Offset: {x: 0, y: 0}
    - _BumpMap:
        m_Texture: {fileID: 0}
        m_Scale: {x: 1, y: 1}
        m_Offset: {x: 0, y: 0}
    - _MainTex:
        m_Texture: {fileID: 2800000, guid: be7c619f327c9f140b38796fe6df859a, type: 3}
        m_Scale: {x: 1, y: 1}
        m_Offset: {x: 0, y: 0}
    - _MatCap:
        m_Texture: {fileID: 2800000, guid: 7566207df8504be4587a97cc7b26dd24, type: 3}
        m_Scale: {x: 1, y: 1}
        m_Offset: {x: 0, y: 0}
    m_Floats:
    - Boolean_14609670: 0
    - Vector1_481C689A: 1
    - Vector1_E67DDDA5: 10
    - _Active_Glow_Time: 0
    - _Active_dead_glow_time: 0
    - _AlphaClip: 0
    - _Blend: 0
    - _Cull: 2
    - _Cutoff: 0.5
    - _DstBlend: 0
    - _SampleGI: 0
    - _SrcBlend: 1
    - _Surface: 0
    - _ZWrite: 1
    m_Colors:
    - Color_3A706550: {r: 0, g: 0, b: 0, a: 0}
    - Color_CFE05A33: {r: 0.5934151, g: 1.4142135, b: 1.3587542, a: 0}
    - _Color: {r: 1, g: 1, b: 1, a: 1}
