%YAML 1.1
%TAG !u! tag:unity3d.com,2011:
--- !u!74 &7400000
AnimationClip:
  m_ObjectHideFlags: 0
  m_PrefabParentObject: {fileID: 0}
  m_PrefabInternal: {fileID: 0}
  m_Name: Dead
  serializedVersion: 6
  m_Legacy: 0
  m_Compressed: 0
  m_UseHighQualityCurve: 1
  m_RotationCurves:
  - curve:
      serializedVersion: 2
      m_Curve:
      - serializedVersion: 2
        time: 0
        value: {x: -0.00000033289513, y: 0, z: -0, w: 1}
        inSlope: {x: 1.545711, y: 1.2102042, z: 0.062488336, w: -0.064364076}
        outSlope: {x: 1.545711, y: 1.2102042, z: 0.062488336, w: -0.064364076}
        tangentMode: 0
      - serializedVersion: 2
        time: 0.033333335
        value: {x: 0.051523373, y: 0.040340144, z: 0.0020829446, w: 0.99785453}
        inSlope: {x: 0.11774993, y: -0.20217359, z: 0.085419685, w: -0.002067985}
        outSlope: {x: 0.11774993, y: -0.20217359, z: 0.085419685, w: -0.002067985}
        tangentMode: 0
      - serializedVersion: 2
        time: 0.06666667
        value: {x: 0.007849663, y: -0.01347824, z: 0.005694646, w: 0.99986213}
        inSlope: {x: -1.4245648, y: -1.6385164, z: 0.0138094835, w: -0.017724032}
        outSlope: {x: -1.4245648, y: -1.6385164, z: 0.0138094835, w: -0.017724032}
        tangentMode: 0
      - serializedVersion: 2
        time: 0.10000001
        value: {x: -0.04344763, y: -0.068894304, z: 0.0030035765, w: 0.9966729}
        inSlope: {x: 0.057089746, y: 0.19111836, z: 0.023821022, w: 0.0006473176}
        outSlope: {x: 0.057089746, y: 0.19111836, z: 0.023821022, w: 0.0006473176}
        tangentMode: 0
      - serializedVersion: 2
        time: 0.13333334
        value: {x: 0.011655638, y: -0.00073703285, z: 0.007282713, w: 0.9999053}
        inSlope: {x: 1.6291428, y: 1.9775819, z: 0.01672399, w: -0.011909008}
        outSlope: {x: 1.6291428, y: 1.9775819, z: 0.01672399, w: -0.011909008}
        tangentMode: 0
      - serializedVersion: 2
        time: 0.16666667
        value: {x: 0.065161884, y: 0.06294448, z: 0.0041185087, w: 0.995879}
        inSlope: {x: -0.012010753, y: -0.15390956, z: 0.008583471, w: -0.000833299}
        outSlope: {x: -0.012010753, y: -0.15390956, z: 0.008583471, w: -0.000833299}
        tangentMode: 0
      - serializedVersion: 2
        time: 0.20000002
        value: {x: 0.010854897, y: -0.010997702, z: 0.007854946, w: 0.99984974}
        inSlope: {x: -1.6284599, y: -2.1845737, z: -0.0077030584, w: -0.003840953}
        outSlope: {x: -1.6284599, y: -2.1845737, z: -0.0077030584, w: -0.003840953}
        tangentMode: 0
      - serializedVersion: 2
        time: 0.23333335
        value: {x: -0.043402124, y: -0.08269379, z: 0.0036049732, w: 0.99562293}
        inSlope: {x: -0.00036263466, y: 0.035188675, z: 0.0042534396, w: 0.00031650066}
        outSlope: {x: -0.00036263466, y: 0.035188675, z: 0.0042534396, w: 0.00031650066}
        tangentMode: 0
      - serializedVersion: 2
        time: 0.26666668
        value: {x: 0.010830718, y: -0.008651791, z: 0.008138509, w: 0.99987084}
        inSlope: {x: 1.6282148, y: 2.2414796, z: 0.01142928, w: 0.00013589859}
        outSlope: {x: 1.6282148, y: 2.2414796, z: 0.01142928, w: 0.00013589859}
        tangentMode: 0
      - serializedVersion: 2
        time: 0.3
        value: {x: 0.06514552, y: 0.06673817, z: 0.004366925, w: 0.995632}
        inSlope: {x: -0.0005130768, y: 0.11832309, z: -0.0144726, w: 0.00067323446}
        outSlope: {x: -0.0005130768, y: 0.11832309, z: -0.0144726, w: 0.00067323446}
        tangentMode: 0
      - serializedVersion: 2
        time: 0.33333334
        value: {x: 0.0107965125, y: -0.0007635911, z: 0.0071736686, w: 0.9999157}
        inSlope: {x: -1.6289108, y: -2.0300903, z: -0.02064411, w: 0.015917126}
        outSlope: {x: -1.6289108, y: -2.0300903, z: -0.02064411, w: 0.015917126}
        tangentMode: 0
      - serializedVersion: 2
        time: 0.36666667
        value: {x: -0.043448526, y: -0.06860117, z: 0.002990651, w: 0.99669313}
        inSlope: {x: -0.0010127425, y: 0.084401965, z: 0.013691969, w: -0.00026647747}
        outSlope: {x: -0.0010127425, y: 0.084401965, z: 0.013691969, w: -0.00026647747}
        tangentMode: 0
      - serializedVersion: 2
        time: 0.40000004
        value: {x: 0.010729045, y: 0.004863278, z: 0.008086471, w: 0.99989796}
        inSlope: {x: 1.6281404, y: 2.1923876, z: 0.03126282, w: -0.027683128}
        outSlope: {x: 1.6281404, y: 2.1923876, z: 0.03126282, w: -0.027683128}
        tangentMode: 0
      - serializedVersion: 2
        time: 0.43333337
        value: {x: 0.06509421, y: 0.07755806, z: 0.0050748433, w: 0.9948476}
        inSlope: {x: 0.00008171797, y: 0.015701056, z: -0.0059262216, w: -0.000039339066}
        outSlope: {x: 0.00008171797, y: 0.015701056, z: -0.0059262216, w: -0.000039339066}
        tangentMode: 0
      - serializedVersion: 2
        time: 0.4666667
        value: {x: 0.010734491, y: 0.005910014, z: 0.0076913894, w: 0.99989533}
        inSlope: {x: -1.6283166, y: -2.13465, z: -0.03377946, w: 0.031544533}
        outSlope: {x: -1.6283166, y: -2.13465, z: -0.03377946, w: 0.031544533}
        tangentMode: 0
      - serializedVersion: 2
        time: 0.5
        value: {x: -0.043460183, y: -0.06475186, z: 0.0028228837, w: 0.99695057}
        inSlope: {x: 0.03747648, y: 0.115347385, z: 0.0037742183, w: -0.0016040392}
        outSlope: {x: 0.03747648, y: 0.115347385, z: 0.0037742183, w: -0.0016040392}
        tangentMode: 0
      - serializedVersion: 2
        time: 0.53333336
        value: {x: 0.01323302, y: 0.013599979, z: 0.007943013, w: 0.9997884}
        inSlope: {x: 1.6274208, y: 2.2982345, z: 0.044481758, w: -0.04520055}
        outSlope: {x: 1.6274208, y: 2.2982345, z: 0.044481758, w: -0.04520055}
        tangentMode: 0
      - serializedVersion: 2
        time: 0.5666667
        value: {x: 0.06503463, y: 0.088463895, z: 0.0057883365, w: 0.9939372}
        inSlope: {x: -0.379439, y: 0.44112444, z: 0.089510515, w: -0.0132499635}
        outSlope: {x: -0.379439, y: 0.44112444, z: 0.089510515, w: -0.0132499635}
        tangentMode: 0
      - serializedVersion: 2
        time: 0.6
        value: {x: -0.012062795, y: 0.04300838, z: 0.013910371, w: 0.99890506}
        inSlope: {x: -2.2541022, y: -2.5744328, z: 0.020270996, w: -0.016187876}
        outSlope: {x: -2.2541022, y: -2.5744328, z: 0.020270996, w: -0.016187876}
        tangentMode: 0
      - serializedVersion: 2
        time: 0.6333334
        value: {x: -0.08523884, y: -0.083165035, z: 0.007139723, w: 0.992858}
        inSlope: {x: -1.0976397, y: -1.8925996, z: -0.10155964, w: -0.090705976}
        outSlope: {x: -1.0976397, y: -1.8925996, z: -0.10155964, w: -0.090705976}
        tangentMode: 0
      - serializedVersion: 2
        time: 0.6666667
        value: {x: -0.08523884, y: -0.083165035, z: 0.007139723, w: 0.992858}
        inSlope: {x: 0, y: 0, z: 0, w: 0}
        outSlope: {x: 0, y: 0, z: 0, w: 0}
        tangentMode: 0
      - serializedVersion: 2
        time: 0.8333334
        value: {x: -0.08523884, y: -0.083165035, z: 0.007139723, w: 0.992858}
        inSlope: {x: 0, y: 0, z: 0, w: 0}
        outSlope: {x: 0, y: 0, z: 0, w: 0}
        tangentMode: 0
      m_PreInfinity: 2
      m_PostInfinity: 2
      m_RotationOrder: 4
    path: Dummy01
  - curve:
      serializedVersion: 2
      m_Curve:
      - serializedVersion: 2
        time: 0
        value: {x: 0, y: -0, z: -1.2246469e-16, w: 1}
        inSlope: {x: -1.931895e-16, y: -1.577512, z: 5.0829914e-18, w: -0.0415045}
        outSlope: {x: -1.931895e-16, y: -1.577512, z: 5.0829914e-18, w: -0.0415045}
        tangentMode: 0
      - serializedVersion: 2
        time: 0.033333335
        value: {x: -6.4396503e-18, y: -0.052583735, z: -1.2229525e-16, w: 0.9986165}
        inSlope: {x: -3.6885036e-17, y: -0.30118912, z: 3.7044457e-19, w: -0.0030237418}
        outSlope: {x: -3.6885036e-17, y: -0.30118912, z: 3.7044457e-19, w: -0.0030237418}
        tangentMode: 0
      - serializedVersion: 2
        time: 0.10000001
        value: {x: 2.8931428e-18, y: 0.023624305, z: -1.224305e-16, w: 0.99972093}
        inSlope: {x: 1.0266847e-17, y: 0.083835185, z: -1.7747992e-19, w: 0.0014492874}
        outSlope: {x: 1.0266847e-17, y: 0.083835185, z: -1.7747992e-19, w: 0.0014492874}
        tangentMode: 0
      - serializedVersion: 2
        time: 0.16666667
        value: {x: -6.4396503e-18, y: -0.052583735, z: -1.2229525e-16, w: 0.9986165}
        inSlope: {x: 3.970467e-23, y: 0.00000035762787, z: 1.0339758e-24, w: -0.000000009313226}
        outSlope: {x: 3.970467e-23, y: 0.00000035762787, z: 1.0339758e-24, w: -0.000000009313226}
        tangentMode: 0
      - serializedVersion: 2
        time: 0.23333335
        value: {x: 2.8931428e-18, y: 0.023624305, z: -1.224305e-16, w: 0.99972093}
        inSlope: {x: -9.264423e-23, y: -0.00000071525574, z: 0, w: 0}
        outSlope: {x: -9.264423e-23, y: -0.00000071525574, z: 0, w: 0}
        tangentMode: 0
      - serializedVersion: 2
        time: 0.3
        value: {x: -6.4396503e-18, y: -0.052583735, z: -1.2229525e-16, w: 0.9986165}
        inSlope: {x: 5.9557004e-23, y: 0.0000005364418, z: 0, w: 0}
        outSlope: {x: 5.9557004e-23, y: 0.0000005364418, z: 0, w: 0}
        tangentMode: 0
      - serializedVersion: 2
        time: 0.36666667
        value: {x: 2.8931428e-18, y: 0.023624305, z: -1.224305e-16, w: 0.99972093}
        inSlope: {x: -7.2791894e-23, y: -0.00000059604645, z: 2.8434334e-25, w: -0.0000000023283064}
        outSlope: {x: -7.2791894e-23, y: -0.00000059604645, z: 2.8434334e-25, w: -0.0000000023283064}
        tangentMode: 0
      - serializedVersion: 2
        time: 0.43333337
        value: {x: -6.4396503e-18, y: -0.052583735, z: -1.2229525e-16, w: 0.9986165}
        inSlope: {x: -6.0371545e-18, y: -0.049297035, z: 9.7474963e-20, w: -0.000795722}
        outSlope: {x: -6.0371545e-18, y: -0.049297035, z: 9.7474963e-20, w: -0.000795722}
        tangentMode: 0
      - serializedVersion: 2
        time: 0.5
        value: {x: 2.8931428e-18, y: 0.023624305, z: -1.224305e-16, w: 0.99972093}
        inSlope: {x: 7.7274994e-17, y: 0.63099813, z: 2.5152926e-19, w: -0.0020554678}
        outSlope: {x: 7.7274994e-17, y: 0.63099813, z: 2.5152926e-19, w: -0.0020554678}
        tangentMode: 0
      - serializedVersion: 2
        time: 0.5666667
        value: {x: 0, y: -0, z: -1.2246469e-16, w: 1}
        inSlope: {x: -8.923896e-17, y: -0.7286914, z: -1.0839365e-18, w: 0.008851282}
        outSlope: {x: -8.923896e-17, y: -0.7286914, z: -1.0839365e-18, w: 0.008851282}
        tangentMode: 0
      m_PreInfinity: 2
      m_PostInfinity: 2
      m_RotationOrder: 4
    path: Dummy01/Bone01/Bone02
  - curve:
      serializedVersion: 2
      m_Curve:
      - serializedVersion: 2
        time: 0
        value: {x: 0, y: 0, z: -0, w: 1}
        inSlope: {x: 0.27278468, y: 1.6848471, z: -0.068329714, w: -0.048669573}
        outSlope: {x: 0.27278468, y: 1.6848471, z: -0.068329714, w: -0.048669573}
        tangentMode: 0
      - serializedVersion: 2
        time: 0.033333335
        value: {x: 0.009092824, y: 0.056161575, z: -0.0022776572, w: 0.9983777}
        inSlope: {x: -0.15332963, y: -0.9770392, z: 0.007482175, w: -0.032640696}
        outSlope: {x: -0.15332963, y: -0.9770392, z: 0.007482175, w: -0.032640696}
        tangentMode: 0
      - serializedVersion: 2
        time: 0.06666667
        value: {x: -0.010221977, y: -0.06513595, z: 0.00049881166, w: 0.99782395}
        inSlope: {x: -0.23866282, y: -1.7362179, z: 0.083131, w: -0.002746583}
        outSlope: {x: -0.23866282, y: -1.7362179, z: 0.083131, w: -0.002746583}
        tangentMode: 0
      - serializedVersion: 2
        time: 0.10000001
        value: {x: -0.0068180333, y: -0.059586283, z: 0.00326441, w: 0.9981946}
        inSlope: {x: 0.3284805, y: 2.0916743, z: -0.0031363517, w: -0.009856226}
        outSlope: {x: 0.3284805, y: 2.0916743, z: -0.0031363517, w: -0.009856226}
        tangentMode: 0
      - serializedVersion: 2
        time: 0.13333334
        value: {x: 0.011676723, y: 0.074309, z: 0.00028972208, w: 0.9971669}
        inSlope: {x: 0.21558376, y: 1.8484595, z: 0.0007155277, w: -0.0038400292}
        outSlope: {x: 0.21558376, y: 1.8484595, z: 0.0007155277, w: -0.0038400292}
        tangentMode: 0
      - serializedVersion: 2
        time: 0.16666667
        value: {x: 0.007554217, y: 0.06364435, z: 0.0033121118, w: 0.9979386}
        inSlope: {x: -0.3490129, y: -2.2758682, z: 0.015192548, w: -0.0035422975}
        outSlope: {x: -0.3490129, y: -2.2758682, z: 0.015192548, w: -0.0035422975}
        tangentMode: 0
      - serializedVersion: 2
        time: 0.20000002
        value: {x: -0.01159081, y: -0.0774156, z: 0.0013025578, w: 0.9969307}
        inSlope: {x: -0.2317643, y: -2.0075254, z: 0.024567513, w: -0.0067278678}
        outSlope: {x: -0.2317643, y: -2.0075254, z: 0.024567513, w: -0.0067278678}
        tangentMode: 0
      - serializedVersion: 2
        time: 0.23333335
        value: {x: -0.007896744, y: -0.070190735, z: 0.004949945, w: 0.99749005}
        inSlope: {x: 0.34519345, y: 2.3033755, z: -0.0130684525, w: 0.0015109782}
        outSlope: {x: 0.34519345, y: 2.3033755, z: -0.0130684525, w: 0.0015109782}
        tangentMode: 0
      - serializedVersion: 2
        time: 0.26666668
        value: {x: 0.011422087, y: 0.076142766, z: 0.00043132747, w: 0.99703145}
        inSlope: {x: 0.24132153, y: 2.164081, z: -0.004552327, w: -0.004234314}
        outSlope: {x: 0.24132153, y: 2.164081, z: -0.004552327, w: -0.004234314}
        tangentMode: 0
      - serializedVersion: 2
        time: 0.3
        value: {x: 0.008191359, y: 0.07408134, z: 0.004646457, w: 0.99720776}
        inSlope: {x: -0.3408254, y: -2.1911786, z: 0.025395542, w: 0.0068065533}
        outSlope: {x: -0.3408254, y: -2.1911786, z: 0.025395542, w: 0.0068065533}
        tangentMode: 0
      - serializedVersion: 2
        time: 0.33333334
        value: {x: -0.011299605, y: -0.069935784, z: 0.0021243638, w: 0.9974852}
        inSlope: {x: -0.24770962, y: -2.1631994, z: 0.010774665, w: 0.0042128568}
        outSlope: {x: -0.24770962, y: -2.1631994, z: 0.010774665, w: 0.0042128568}
        tangentMode: 0
      - serializedVersion: 2
        time: 0.36666667
        value: {x: -0.008322614, y: -0.070131935, z: 0.0053647677, w: 0.9974886}
        inSlope: {x: 0.33629912, y: 2.149237, z: -0.04173071, w: -0.0036138266}
        outSlope: {x: 0.33629912, y: 2.149237, z: -0.04173071, w: -0.0036138266}
        tangentMode: 0
      - serializedVersion: 2
        time: 0.40000004
        value: {x: 0.011120353, y: 0.0733468, z: -0.0006576881, w: 0.9972443}
        inSlope: {x: 0.2541957, y: 2.1787286, z: -0.026491307, w: -0.0053644152}
        outSlope: {x: 0.2541957, y: 2.1787286, z: -0.026491307, w: -0.0053644152}
        tangentMode: 0
      - serializedVersion: 2
        time: 0.43333337
        value: {x: 0.008623781, y: 0.07511675, z: 0.0035986756, w: 0.997131}
        inSlope: {x: -0.33226097, y: -2.1228418, z: 0.046240985, w: 0.005476177}
        outSlope: {x: -0.33226097, y: -2.1228418, z: 0.046240985, w: 0.005476177}
        tangentMode: 0
      - serializedVersion: 2
        time: 0.4666667
        value: {x: -0.011030376, y: -0.06817599, z: 0.0024250438, w: 0.9976094}
        inSlope: {x: -0.26072136, y: -2.2805421, z: 0.043798406, w: -0.0023013442}
        outSlope: {x: -0.26072136, y: -2.2805421, z: 0.043798406, w: -0.0023013442}
        tangentMode: 0
      - serializedVersion: 2
        time: 0.5
        value: {x: -0.008757643, y: -0.07691937, z: 0.0065185656, w: 0.99697757}
        inSlope: {x: 0.33564952, y: 1.7447788, z: -0.03285178, w: 0.017499594}
        outSlope: {x: 0.33564952, y: 1.7447788, z: -0.03285178, w: 0.017499594}
        tangentMode: 0
      - serializedVersion: 2
        time: 0.53333336
        value: {x: 0.011346273, y: 0.0481427, z: 0.00023491585, w: 0.998776}
        inSlope: {x: 0.25711846, y: 2.1966627, z: -0.013359107, w: 0.008273713}
        outSlope: {x: 0.25711846, y: 2.1966627, z: -0.013359107, w: 0.008273713}
        tangentMode: 0
      - serializedVersion: 2
        time: 0.5666667
        value: {x: 0.008383603, y: 0.06952492, z: 0.0056279576, w: 0.99752915}
        inSlope: {x: -0.39713818, y: -1.4051241, z: -0.03859698, w: 0.0010434128}
        outSlope: {x: -0.39713818, y: -1.4051241, z: -0.03859698, w: 0.0010434128}
        tangentMode: 0
      - serializedVersion: 2
        time: 0.6
        value: {x: -0.015129586, y: -0.04553211, z: -0.0023382043, w: 0.9988456}
        inSlope: {x: -0.31065574, y: -2.057995, z: 0.06499287, w: 0.00078681484}
        outSlope: {x: -0.31065574, y: -2.057995, z: 0.06499287, w: 0.00078681484}
        tangentMode: 0
      - serializedVersion: 2
        time: 0.6333334
        value: {x: -0.012326754, y: -0.06767466, z: 0.009960833, w: 0.9975816}
        inSlope: {x: 0.32225123, y: 0.6000982, z: 0.06798359, w: 0.016748656}
        outSlope: {x: 0.32225123, y: 0.6000982, z: 0.06798359, w: 0.016748656}
        tangentMode: 0
      - serializedVersion: 2
        time: 0.6666667
        value: {x: 0.006353814, y: -0.0055256393, z: 0.0021940528, w: 0.99996215}
        inSlope: {x: 0.51572335, y: 1.3467528, z: -0.124465995, w: 0.028939286}
        outSlope: {x: 0.51572335, y: 1.3467528, z: -0.124465995, w: 0.028939286}
        tangentMode: 0
      - serializedVersion: 2
        time: 0.73333335
        value: {x: 0.028481428, y: 0.018130451, z: 0.0027200484, w: 0.9994262}
        inSlope: {x: -0.1324718, y: -0.2273006, z: 0.0027290517, w: 0.0056371028}
        outSlope: {x: -0.1324718, y: -0.2273006, z: 0.0027290517, w: 0.0056371028}
        tangentMode: 0
      - serializedVersion: 2
        time: 0.8000001
        value: {x: -0.0062009324, y: -0.0068004266, z: 0.00038030732, w: 0.9999576}
        inSlope: {x: -0.20407814, y: -0.12805423, z: -0.026822183, w: 0.0016799566}
        outSlope: {x: -0.20407814, y: -0.12805423, z: -0.026822183, w: 0.0016799566}
        tangentMode: 0
      - serializedVersion: 2
        time: 0.8333334
        value: {x: -0.00038190815, y: -0.0015815195, z: 0.000056895733, w: 0.9999987}
        inSlope: {x: 0.092616595, y: 0.09896146, z: -0.005592195, w: 0.0006356841}
        outSlope: {x: 0.092616595, y: 0.09896146, z: -0.005592195, w: 0.0006356841}
        tangentMode: 0
      m_PreInfinity: 2
      m_PostInfinity: 2
      m_RotationOrder: 4
    path: Dummy01/Bone01/Bone02/Bone03
  - curve:
      serializedVersion: 2
      m_Curve:
      - serializedVersion: 2
        time: 0
        value: {x: 0, y: 0, z: -0, w: 1}
        inSlope: {x: 0.6950985, y: 2.2381425, z: -0.08576089, w: -0.09180307}
        outSlope: {x: 0.6950985, y: 2.2381425, z: -0.08576089, w: -0.09180307}
        tangentMode: 0
      - serializedVersion: 2
        time: 0.033333335
        value: {x: 0.023169952, y: 0.07460475, z: -0.0028586965, w: 0.9969399}
        inSlope: {x: -0.1274572, y: -0.494156, z: -0.041611552, w: -0.008741319}
        outSlope: {x: -0.1274572, y: -0.494156, z: -0.041611552, w: -0.008741319}
        tangentMode: 0
      - serializedVersion: 2
        time: 0.06666667
        value: {x: -0.008497146, y: -0.032943744, z: -0.0027741035, w: 0.99941725}
        inSlope: {x: -0.7947776, y: -2.7504597, z: 0.102634095, w: -0.049904276}
        outSlope: {x: -0.7947776, y: -2.7504597, z: 0.102634095, w: -0.049904276}
        tangentMode: 0
      - serializedVersion: 2
        time: 0.10000001
        value: {x: -0.029815223, y: -0.108759254, z: 0.0039835777, w: 0.99361295}
        inSlope: {x: 0.30312783, y: 1.1234622, z: 0.029618934, w: -0.0054994}
        outSlope: {x: 0.30312783, y: 1.1234622, z: 0.029618934, w: -0.0054994}
        tangentMode: 0
      - serializedVersion: 2
        time: 0.13333334
        value: {x: 0.011711368, y: 0.04195371, z: -0.0007995064, w: 0.9990506}
        inSlope: {x: 0.94454706, y: 3.3680937, z: -0.004529178, w: -0.013476312}
        outSlope: {x: 0.94454706, y: 3.3680937, z: -0.004529178, w: -0.013476312}
        tangentMode: 0
      - serializedVersion: 2
        time: 0.16666667
        value: {x: 0.033154577, y: 0.1157803, z: 0.003681633, w: 0.9927145}
        inSlope: {x: -0.31989118, y: -1.2567608, z: 0.017646566, w: 0.00041659176}
        outSlope: {x: -0.31989118, y: -1.2567608, z: 0.017646566, w: 0.00041659176}
        tangentMode: 0
      - serializedVersion: 2
        time: 0.20000002
        value: {x: -0.0096147265, y: -0.041830413, z: 0.00037693002, w: 0.9990784}
        inSlope: {x: -0.99510163, y: -3.5851603, z: 0.034935668, w: -0.013645336}
        outSlope: {x: -0.99510163, y: -3.5851603, z: 0.034935668, w: -0.013645336}
        tangentMode: 0
      - serializedVersion: 2
        time: 0.23333335
        value: {x: -0.033185545, y: -0.123230435, z: 0.006010676, w: 0.99180484}
        inSlope: {x: 0.27730763, y: 1.174094, z: -0.0012479499, w: 0.0032687187}
        outSlope: {x: 0.27730763, y: 1.174094, z: -0.0012479499, w: 0.0032687187}
        tangentMode: 0
      - serializedVersion: 2
        time: 0.26666668
        value: {x: 0.008872444, y: 0.03644252, z: 0.0002937335, w: 0.9992963}
        inSlope: {x: 0.9999569, y: 3.7334404, z: -0.017296366, w: -0.0046366453}
        outSlope: {x: 0.9999569, y: 3.7334404, z: -0.017296366, w: -0.0046366453}
        tangentMode: 0
      - serializedVersion: 2
        time: 0.3
        value: {x: 0.03347824, y: 0.12566559, z: 0.004857585, w: 0.9914957}
        inSlope: {x: -0.25615174, y: -0.9600202, z: 0.025344428, w: 0.004323721}
        outSlope: {x: -0.25615174, y: -0.9600202, z: 0.025344428, w: 0.004323721}
        tangentMode: 0
      - serializedVersion: 2
        time: 0.33333334
        value: {x: -0.008204337, y: -0.027558818, z: 0.0019833618, w: 0.99958456}
        inSlope: {x: -1.0030401, y: -3.670314, z: 0.028939996, w: 0.012165606}
        outSlope: {x: -1.0030401, y: -3.670314, z: 0.028939996, w: 0.012165606}
        tangentMode: 0
      - serializedVersion: 2
        time: 0.36666667
        value: {x: -0.033391092, y: -0.119022, z: 0.006786918, w: 0.99230677}
        inSlope: {x: 0.23696274, y: 0.9085634, z: -0.03437352, w: -0.002377428}
        outSlope: {x: 0.23696274, y: 0.9085634, z: -0.03437352, w: -0.002377428}
        tangentMode: 0
      - serializedVersion: 2
        time: 0.40000004
        value: {x: 0.007593214, y: 0.03301221, z: -0.00030821227, w: 0.99942607}
        inSlope: {x: 1.006309, y: 3.6601167, z: -0.05573605, w: -0.010880925}
        outSlope: {x: 1.006309, y: 3.6601167, z: -0.05573605, w: -0.010880925}
        tangentMode: 0
      - serializedVersion: 2
        time: 0.43333337
        value: {x: 0.033696204, y: 0.12498591, z: 0.0030711752, w: 0.9915814}
        inSlope: {x: -0.21871293, y: -0.8603344, z: 0.030546332, w: 0.0037756562}
        outSlope: {x: -0.21871293, y: -0.8603344, z: 0.030546332, w: 0.0037756562}
        tangentMode: 0
      - serializedVersion: 2
        time: 0.4666667
        value: {x: -0.0069876467, y: -0.024343414, z: 0.0017282098, w: 0.9996778}
        inSlope: {x: -1.0098928, y: -3.721815, z: 0.074100785, w: 0.0030933768}
        outSlope: {x: -1.0098928, y: -3.721815, z: 0.074100785, w: 0.0030933768}
        tangentMode: 0
      - serializedVersion: 2
        time: 0.5
        value: {x: -0.033629958, y: -0.12313499, z: 0.008011222, w: 0.9917876}
        inSlope: {x: 0.21489641, y: 0.39141583, z: -0.01664292, w: 0.004403971}
        outSlope: {x: 0.21489641, y: 0.39141583, z: -0.01664292, w: 0.004403971}
        tangentMode: 0
      - serializedVersion: 2
        time: 0.53333336
        value: {x: 0.007338842, y: 0.0017511715, z: 0.00061866984, w: 0.9999714}
        inSlope: {x: 1.0092801, y: 3.3947644, z: -0.027930245, w: 0.0342938}
        outSlope: {x: 1.0092801, y: 3.3947644, z: -0.027930245, w: 0.0342938}
        tangentMode: 0
      - serializedVersion: 2
        time: 0.5666667
        value: {x: 0.03365544, y: 0.10318283, z: 0.006149204, w: 0.99407387}
        inSlope: {x: -0.3438031, y: -0.089951396, z: -0.064824946, w: -0.0016297325}
        outSlope: {x: -0.3438031, y: -0.089951396, z: -0.064824946, w: -0.0016297325}
        tangentMode: 0
      - serializedVersion: 2
        time: 0.6
        value: {x: -0.015581294, y: -0.0042453995, z: -0.0037029788, w: 0.99986273}
        inSlope: {x: -1.2325413, y: -3.026807, z: 0.024441615, w: -0.0024120435}
        outSlope: {x: -1.2325413, y: -3.026807, z: 0.024441615, w: -0.0024120435}
        tangentMode: 0
      - serializedVersion: 2
        time: 0.6333334
        value: {x: -0.04851396, y: -0.098604284, z: 0.007778665, w: 0.99391305}
        inSlope: {x: 0.04647401, y: -0.5494449, z: 0.1502794, w: -0.011945516}
        outSlope: {x: 0.04647401, y: -0.5494449, z: 0.1502794, w: -0.011945516}
        tangentMode: 0
      - serializedVersion: 2
        time: 0.6666667
        value: {x: -0.012483089, y: -0.040875196, z: 0.0063156597, w: 0.99906635}
        inSlope: {x: 0.9804747, y: 1.805757, z: -0.08415373, w: 0.085580416}
        outSlope: {x: 0.9804747, y: 1.805757, z: -0.08415373, w: 0.085580416}
        tangentMode: 0
      - serializedVersion: 2
        time: 0.70000005
        value: {x: 0.016851008, y: 0.021779517, z: 0.0021684144, w: 0.9996184}
        inSlope: {x: 0.55266654, y: 1.1217289, z: -0.04069805, w: 0.000827895}
        outSlope: {x: 0.55266654, y: 1.1217289, z: -0.04069805, w: 0.000827895}
        tangentMode: 0
      - serializedVersion: 2
        time: 0.7666667
        value: {x: 0.019665392, y: 0.020378264, z: 0.0036643466, w: 0.99959224}
        inSlope: {x: -0.5237693, y: -0.5710817, z: -0.041743502, w: 0.012205829}
        outSlope: {x: -0.5237693, y: -0.5710817, z: -0.041743502, w: 0.012205829}
        tangentMode: 0
      - serializedVersion: 2
        time: 0.8000001
        value: {x: -0.010556617, y: -0.0041653765, z: 0.00081954926, w: 0.99993527}
        inSlope: {x: -0.42087823, y: -0.3885139, z: -0.05135555, w: 0.0053590494}
        outSlope: {x: -0.42087823, y: -0.3885139, z: -0.05135555, w: 0.0053590494}
        tangentMode: 0
      - serializedVersion: 2
        time: 0.8333333
        value: {x: -0.011214438, y: -0.0066601736, z: 0.00003868444, w: 1.0000033}
        inSlope: {x: 0.24724476, y: 0.14045556, z: -0.0034756423, w: -0.0001949072}
        outSlope: {x: 0.24724476, y: 0.14045556, z: -0.0034756423, w: -0.0001949072}
        tangentMode: 0
      m_PreInfinity: 2
      m_PostInfinity: 2
      m_RotationOrder: 4
    path: Dummy01/Bone01/Bone02/Bone03/Bone04
  - curve:
      serializedVersion: 2
      m_Curve:
      - serializedVersion: 2
        time: 0
        value: {x: 0, y: 0, z: 1.2246469e-16, w: 1}
        inSlope: {x: 0, y: 0, z: 0, w: 0}
        outSlope: {x: 0, y: 0, z: 0, w: 0}
        tangentMode: 0
      - serializedVersion: 2
        time: 0.5666667
        value: {x: 0, y: 0, z: 1.2246469e-16, w: 1}
        inSlope: {x: 0, y: 0, z: 0, w: 0}
        outSlope: {x: 0, y: 0, z: 0, w: 0}
        tangentMode: 0
      m_PreInfinity: 2
      m_PostInfinity: 2
      m_RotationOrder: 4
    path: Dummy01/Bone01/Bone02/Bone03/Bone04/Bone05
  - curve:
      serializedVersion: 2
      m_Curve:
      - serializedVersion: 2
        time: 0
        value: {x: -0.09857354, y: -0.32634103, z: -0.26669547, w: 0.90147567}
        inSlope: {x: 0, y: 0, z: 0, w: 0}
        outSlope: {x: 0, y: 0, z: 0, w: 0}
        tangentMode: 0
      - serializedVersion: 2
        time: 0.033333335
        value: {x: -0.09857354, y: -0.32634103, z: -0.26669547, w: 0.90147567}
        inSlope: {x: 0, y: 0, z: 0, w: 0}
        outSlope: {x: 0, y: 0, z: 0, w: 0}
        tangentMode: 0
      m_PreInfinity: 2
      m_PostInfinity: 2
      m_RotationOrder: 4
    path: Dummy01/Bone01/Bone02/Bone03/Point005
  - curve:
      serializedVersion: 2
      m_Curve:
      - serializedVersion: 2
        time: 0
        value: {x: 0.2690059, y: 0.35434607, z: -0.5577532, w: 0.700704}
        inSlope: {x: 0, y: 0, z: 0, w: 0}
        outSlope: {x: 0, y: 0, z: 0, w: 0}
        tangentMode: 0
      - serializedVersion: 2
        time: 0.033333335
        value: {x: 0.2690059, y: 0.35434607, z: -0.5577532, w: 0.700704}
        inSlope: {x: 0, y: 0, z: 0, w: 0}
        outSlope: {x: 0, y: 0, z: 0, w: 0}
        tangentMode: 0
      m_PreInfinity: 2
      m_PostInfinity: 2
      m_RotationOrder: 4
    path: Dummy01/Bone01/Bone02/Point003
  - curve:
      serializedVersion: 2
      m_Curve:
      - serializedVersion: 2
        time: 0
        value: {x: -0.22133492, y: -0.29284135, z: -0.525187, w: 0.7677457}
        inSlope: {x: 0, y: 0, z: 0, w: 0}
        outSlope: {x: 0, y: 0, z: 0, w: 0}
        tangentMode: 0
      - serializedVersion: 2
        time: 0.033333335
        value: {x: -0.22133492, y: -0.29284135, z: -0.525187, w: 0.7677457}
        inSlope: {x: 0, y: 0, z: 0, w: 0}
        outSlope: {x: 0, y: 0, z: 0, w: 0}
        tangentMode: 0
      m_PreInfinity: 2
      m_PostInfinity: 2
      m_RotationOrder: 4
    path: Dummy01/Bone01/Bone02/Point006
  - curve:
      serializedVersion: 2
      m_Curve:
      - serializedVersion: 2
        time: 0
        value: {x: -0.19287816, y: 0.37902984, z: 0.41047117, w: 0.80662745}
        inSlope: {x: 0, y: 0, z: 0, w: 0}
        outSlope: {x: 0, y: 0, z: 0, w: 0}
        tangentMode: 0
      - serializedVersion: 2
        time: 0.033333335
        value: {x: -0.19287816, y: 0.37902984, z: 0.41047117, w: 0.80662745}
        inSlope: {x: 0, y: 0, z: 0, w: 0}
        outSlope: {x: 0, y: 0, z: 0, w: 0}
        tangentMode: 0
      m_PreInfinity: 2
      m_PostInfinity: 2
      m_RotationOrder: 4
    path: Dummy01/Bone01/Bone02/Point010
  - curve:
      serializedVersion: 2
      m_Curve:
      - serializedVersion: 2
        time: 0
        value: {x: 0.072872356, y: -0.115203634, z: 0.5295909, w: 0.8372283}
        inSlope: {x: 0, y: 0, z: 0, w: 0}
        outSlope: {x: 0, y: 0, z: 0, w: 0}
        tangentMode: 0
      - serializedVersion: 2
        time: 0.033333335
        value: {x: 0.072872356, y: -0.115203634, z: 0.5295909, w: 0.8372283}
        inSlope: {x: 0, y: 0, z: 0, w: 0}
        outSlope: {x: 0, y: 0, z: 0, w: 0}
        tangentMode: 0
      m_PreInfinity: 2
      m_PostInfinity: 2
      m_RotationOrder: 4
    path: Dummy01/Bone01/Bone02/Point007
  - curve:
      serializedVersion: 2
      m_Curve:
      - serializedVersion: 2
        time: 0
        value: {x: 0.10459505, y: -0.39720497, z: 0.2514336, w: 0.8763956}
        inSlope: {x: 0, y: 0, z: 0, w: 0}
        outSlope: {x: 0, y: 0, z: 0, w: 0}
        tangentMode: 0
      - serializedVersion: 2
        time: 0.033333335
        value: {x: 0.10459505, y: -0.39720497, z: 0.2514336, w: 0.8763956}
        inSlope: {x: 0, y: 0, z: 0, w: 0}
        outSlope: {x: 0, y: 0, z: 0, w: 0}
        tangentMode: 0
      m_PreInfinity: 2
      m_PostInfinity: 2
      m_RotationOrder: 4
    path: Dummy01/Bone01/Bone02/Point008
  - curve:
      serializedVersion: 2
      m_Curve:
      - serializedVersion: 2
        time: 0
        value: {x: 0.11869056, y: 0.30657825, z: -0.3409665, w: 0.880718}
        inSlope: {x: 0, y: 0, z: 0, w: 0}
        outSlope: {x: 0, y: 0, z: 0, w: 0}
        tangentMode: 0
      - serializedVersion: 2
        time: 0.033333335
        value: {x: 0.11869056, y: 0.30657825, z: -0.3409665, w: 0.880718}
        inSlope: {x: 0, y: 0, z: 0, w: 0}
        outSlope: {x: 0, y: 0, z: 0, w: 0}
        tangentMode: 0
      m_PreInfinity: 2
      m_PostInfinity: 2
      m_RotationOrder: 4
    path: Dummy01/Bone01/Bone02/Point004
  - curve:
      serializedVersion: 2
      m_Curve:
      - serializedVersion: 2
        time: 0
        value: {x: -0.36421442, y: -0.12740514, z: 0.8693131, w: -0.30888596}
        inSlope: {x: 0, y: 0, z: 0, w: 0}
        outSlope: {x: 0, y: 0, z: 0, w: 0}
        tangentMode: 0
      - serializedVersion: 2
        time: 0.033333335
        value: {x: -0.36421442, y: -0.12740514, z: 0.8693131, w: -0.30888596}
        inSlope: {x: 0, y: 0, z: 0, w: 0}
        outSlope: {x: 0, y: 0, z: 0, w: 0}
        tangentMode: 0
      m_PreInfinity: 2
      m_PostInfinity: 2
      m_RotationOrder: 4
    path: Dummy01/Bone01/Point001
  - curve:
      serializedVersion: 2
      m_Curve:
      - serializedVersion: 2
        time: 0
        value: {x: 0.11148139, y: 0.07633727, z: -0.82960045, w: 0.5417634}
        inSlope: {x: 0, y: 0, z: 0, w: 0}
        outSlope: {x: 0, y: 0, z: 0, w: 0}
        tangentMode: 0
      - serializedVersion: 2
        time: 0.033333335
        value: {x: 0.11148139, y: 0.07633727, z: -0.82960045, w: 0.5417634}
        inSlope: {x: 0, y: 0, z: 0, w: 0}
        outSlope: {x: 0, y: 0, z: 0, w: 0}
        tangentMode: 0
      m_PreInfinity: 2
      m_PostInfinity: 2
      m_RotationOrder: 4
    path: Dummy01/Bone01/Point002
  - curve:
      serializedVersion: 2
      m_Curve:
      - serializedVersion: 2
        time: 0
        value: {x: -0.1812731, y: -0.13434626, z: -0.73839015, w: 0.63550866}
        inSlope: {x: 0, y: 0, z: 0, w: 0}
        outSlope: {x: 0, y: 0, z: 0, w: 0}
        tangentMode: 0
      - serializedVersion: 2
        time: 0.033333335
        value: {x: -0.1812731, y: -0.13434626, z: -0.73839015, w: 0.63550866}
        inSlope: {x: 0, y: 0, z: 0, w: 0}
        outSlope: {x: 0, y: 0, z: 0, w: 0}
        tangentMode: 0
      m_PreInfinity: 2
      m_PostInfinity: 2
      m_RotationOrder: 4
    path: Dummy01/Bone01/Point009
  - curve:
      serializedVersion: 2
      m_Curve:
      - serializedVersion: 2
        time: 0
        value: {x: -0.3660864, y: -0.23146622, z: 0.8690527, w: 0.23906407}
        inSlope: {x: 2.8408248, y: -3.1826048, z: -3.7278752, w: 8.057083}
        outSlope: {x: 2.8408248, y: -3.1826048, z: -3.7278752, w: 8.057083}
        tangentMode: 0
      - serializedVersion: 2
        time: 0.033333335
        value: {x: -0.27139223, y: -0.33755305, z: 0.7447902, w: 0.5076335}
        inSlope: {x: 2.8408248, y: -3.1826048, z: -3.7278752, w: 8.057083}
        outSlope: {x: 2.8408248, y: -3.1826048, z: -3.7278752, w: 8.057083}
        tangentMode: 0
      m_PreInfinity: 2
      m_PostInfinity: 2
      m_RotationOrder: 4
    path: Dummy01/Bone01/Bone06
  - curve:
      serializedVersion: 2
      m_Curve:
      - serializedVersion: 2
        time: 0
        value: {x: 0.2592634, y: 0.86324185, z: -0.23993975, w: -0.36058974}
        inSlope: {x: 6.2478166, y: -2.7792387, z: -2.4835322, w: 2.1516252}
        outSlope: {x: 6.2478166, y: -2.7792387, z: -2.4835322, w: 2.1516252}
        tangentMode: 0
      - serializedVersion: 2
        time: 0.033333335
        value: {x: 0.46752396, y: 0.77060056, z: -0.32272416, w: -0.2888689}
        inSlope: {x: 6.2478166, y: -2.7792387, z: -2.4835322, w: 2.1516252}
        outSlope: {x: 6.2478166, y: -2.7792387, z: -2.4835322, w: 2.1516252}
        tangentMode: 0
      m_PreInfinity: 2
      m_PostInfinity: 2
      m_RotationOrder: 4
    path: Dummy01/Bone01/Bone06(mirrored)
  - curve:
      serializedVersion: 2
      m_Curve:
      - serializedVersion: 2
        time: 0
        value: {x: -0.40669745, y: 0.22174202, z: 0.7769308, w: -0.4263875}
        inSlope: {x: 0, y: 0, z: 0, w: 0}
        outSlope: {x: 0, y: 0, z: 0, w: 0}
        tangentMode: 0
      - serializedVersion: 2
        time: 0.36666667
        value: {x: -0.40669745, y: 0.22174202, z: 0.7769308, w: -0.4263875}
        inSlope: {x: 0, y: 0, z: 0, w: 0}
        outSlope: {x: 0, y: 0, z: 0, w: 0}
        tangentMode: 0
      m_PreInfinity: 2
      m_PostInfinity: 2
      m_RotationOrder: 4
    path: Dummy01/Bone01/Bone08
  - curve:
      serializedVersion: 2
      m_Curve:
      - serializedVersion: 2
        time: 0
        value: {x: -0.21361321, y: 0.019913698, z: 0.0043552835, w: 0.9767056}
        inSlope: {x: 0, y: 0, z: 0, w: 0}
        outSlope: {x: 0, y: 0, z: 0, w: 0}
        tangentMode: 0
      - serializedVersion: 2
        time: 0.8333334
        value: {x: -0.21361321, y: 0.019913698, z: 0.0043552835, w: 0.9767056}
        inSlope: {x: 0, y: 0, z: 0, w: 0}
        outSlope: {x: 0, y: 0, z: 0, w: 0}
        tangentMode: 0
      m_PreInfinity: 2
      m_PostInfinity: 2
      m_RotationOrder: 4
    path: Camera01
  m_CompressedRotationCurves: []
  m_EulerCurves: []
  m_PositionCurves:
  - curve:
      serializedVersion: 2
      m_Curve:
      - serializedVersion: 2
        time: 0
        value: {x: -2.1827114, y: 0.063311234, z: 0}
        inSlope: {x: 0, y: 0, z: 0}
        outSlope: {x: 0, y: 0, z: 0}
        tangentMode: 0
      - serializedVersion: 2
        time: 0.6333333
        value: {x: -2.1827114, y: 0.063311234, z: 0}
        inSlope: {x: 0, y: 0, z: 0}
        outSlope: {x: 0, y: 0, z: 0}
        tangentMode: 0
      m_PreInfinity: 2
      m_PostInfinity: 2
      m_RotationOrder: 4
    path: Dummy01
  - curve:
      serializedVersion: 2
      m_Curve:
      - serializedVersion: 2
        time: 0
        value: {x: -4.409884, y: -0.00006012, z: 0.00000038}
        inSlope: {x: 0, y: 0, z: 0}
        outSlope: {x: 0, y: 0, z: 0}
        tangentMode: 0
      - serializedVersion: 2
        time: 0.56666666
        value: {x: -4.409884, y: -0.00006012, z: 0.00000038}
        inSlope: {x: 0, y: 0, z: 0}
        outSlope: {x: 0, y: 0, z: 0}
        tangentMode: 0
      m_PreInfinity: 2
      m_PostInfinity: 2
      m_RotationOrder: 4
    path: Dummy01/Bone01/Bone02
  - curve:
      serializedVersion: 2
      m_Curve:
      - serializedVersion: 2
        time: 0
        value: {x: -3.8012195, y: 0.000008229999, z: 0.0000005}
        inSlope: {x: -3.5527133e-14, y: 1.1616451e-19, z: 1.2705494e-20}
        outSlope: {x: -3.5527133e-14, y: 1.1616451e-19, z: 1.2705494e-20}
        tangentMode: 0
      - serializedVersion: 2
        time: 0.36666667
        value: {x: -3.8012195, y: 0.000008229999, z: 0.0000005}
        inSlope: {x: -1.5225917e-14, y: 2.7105054e-19, z: 5.4452124e-21}
        outSlope: {x: -3.5527106e-14, y: 1.1616442e-19, z: 8.6745e-12}
        tangentMode: 0
      - serializedVersion: 2
        time: 0.56666666
        value: {x: -3.8012197, y: 0.000008229999, z: 0.00000052999997}
        inSlope: {x: -0, y: 2.710508e-19, z: 0.00000020295116}
        outSlope: {x: -0, y: 2.710508e-19, z: 0.00000020295116}
        tangentMode: 0
      m_PreInfinity: 2
      m_PostInfinity: 2
      m_RotationOrder: 4
    path: Dummy01/Bone01/Bone02/Bone03
  - curve:
      serializedVersion: 2
      m_Curve:
      - serializedVersion: 2
        time: 0
        value: {x: -3.1635022, y: 0.00000023, z: -0.00000004}
        inSlope: {x: -4.060244e-14, y: 4.2351643e-21, z: -0}
        outSlope: {x: -4.060244e-14, y: 4.2351643e-21, z: -0}
        tangentMode: 0
      - serializedVersion: 2
        time: 0.36666667
        value: {x: -3.1635022, y: 0.00000023, z: -0.00000004}
        inSlope: {x: 4.0602443e-14, y: 1.8150707e-21, z: -0}
        outSlope: {x: -4.060241e-14, y: -4.3182706e-12, z: -0}
        tangentMode: 0
      - serializedVersion: 2
        time: 0.56666666
        value: {x: -3.1635025, y: 0.00000025999998, z: -0.00000004}
        inSlope: {x: -3.045186e-14, y: 0.0000002029401, z: -0}
        outSlope: {x: -3.045186e-14, y: 0.0000002029401, z: -0}
        tangentMode: 0
      m_PreInfinity: 2
      m_PostInfinity: 2
      m_RotationOrder: 4
    path: Dummy01/Bone01/Bone02/Bone03/Bone04
  - curve:
      serializedVersion: 2
      m_Curve:
      - serializedVersion: 2
        time: 0
        value: {x: -2.5014098, y: 0.00000351, z: 0}
        inSlope: {x: -1.7763567e-14, y: -0, z: -0}
        outSlope: {x: -1.7763567e-14, y: -0, z: -0}
        tangentMode: 0
      - serializedVersion: 2
        time: 0.5
        value: {x: -2.5014098, y: 0.00000349379, z: 0.000000043226844}
        inSlope: {x: -7.612965e-15, y: -0.00000020000127, z: 0.00000053327284}
        outSlope: {x: -1.7763553e-14, y: -0.00000019996432, z: 0.000000533268}
        tangentMode: 0
      - serializedVersion: 2
        time: 0.56666666
        value: {x: -2.5014098, y: 0.00000348, z: 0.00000008}
        inSlope: {x: -7.612965e-15, y: -0.00000020297693, z: 0.0000005411757}
        outSlope: {x: -7.612965e-15, y: -0.00000020297693, z: 0.0000005411757}
        tangentMode: 0
      m_PreInfinity: 2
      m_PostInfinity: 2
      m_RotationOrder: 4
    path: Dummy01/Bone01/Bone02/Bone03/Bone04/Bone05
  - curve:
      serializedVersion: 2
      m_Curve:
      - serializedVersion: 2
        time: 0
        value: {x: -0.5179257, y: 1.7265127, z: -1.4672369}
        inSlope: {x: -8.881783e-15, y: -0, z: -2.6645353e-14}
        outSlope: {x: -8.881783e-15, y: -0, z: -2.6645353e-14}
        tangentMode: 0
      - serializedVersion: 2
        time: 0.033333335
        value: {x: -0.5179257, y: 1.7265127, z: -1.4672369}
        inSlope: {x: -3.806479e-15, y: -0, z: -1.1419437e-14}
        outSlope: {x: -3.806479e-15, y: -0, z: -1.1419437e-14}
        tangentMode: 0
      m_PreInfinity: 2
      m_PostInfinity: 2
      m_RotationOrder: 4
    path: Dummy01/Bone01/Bone02/Bone03/Point005
  - curve:
      serializedVersion: 2
      m_Curve:
      - serializedVersion: 2
        time: 0
        value: {x: -0.81209534, y: 2.4576633, z: 2.8256166}
        inSlope: {x: -1.7763567e-14, y: 1.7763567e-14, z: 3.5527133e-14}
        outSlope: {x: -1.7763567e-14, y: 1.7763567e-14, z: 3.5527133e-14}
        tangentMode: 0
      - serializedVersion: 2
        time: 0.033333335
        value: {x: -0.81209534, y: 2.4576633, z: 2.8256166}
        inSlope: {x: -7.612958e-15, y: 7.612958e-15, z: 1.5225915e-14}
        outSlope: {x: -7.612958e-15, y: 7.612958e-15, z: 1.5225915e-14}
        tangentMode: 0
      m_PreInfinity: 2
      m_PostInfinity: 2
      m_RotationOrder: 4
    path: Dummy01/Bone01/Bone02/Point003
  - curve:
      serializedVersion: 2
      m_Curve:
      - serializedVersion: 2
        time: 0
        value: {x: -1.1638368, y: 3.1489651, z: -2.205186}
        inSlope: {x: -2.6645353e-14, y: 7.105427e-14, z: -0}
        outSlope: {x: -2.6645353e-14, y: 7.105427e-14, z: -0}
        tangentMode: 0
      - serializedVersion: 2
        time: 0.033333335
        value: {x: -1.1638368, y: 3.1489651, z: -2.205186}
        inSlope: {x: -1.1419437e-14, y: 3.045183e-14, z: -0}
        outSlope: {x: -1.1419437e-14, y: 3.045183e-14, z: -0}
        tangentMode: 0
      m_PreInfinity: 2
      m_PostInfinity: 2
      m_RotationOrder: 4
    path: Dummy01/Bone01/Bone02/Point006
  - curve:
      serializedVersion: 2
      m_Curve:
      - serializedVersion: 2
        time: 0
        value: {x: -2.3899386, y: -1.7609959, z: 2.9322174}
        inSlope: {x: -3.5527133e-14, y: -5.3290705e-14, z: 7.105427e-14}
        outSlope: {x: -3.5527133e-14, y: -5.3290705e-14, z: 7.105427e-14}
        tangentMode: 0
      - serializedVersion: 2
        time: 0.033333335
        value: {x: -2.3899386, y: -1.7609959, z: 2.9322174}
        inSlope: {x: -1.5225915e-14, y: -2.2838875e-14, z: 3.045183e-14}
        outSlope: {x: -1.5225915e-14, y: -2.2838875e-14, z: 3.045183e-14}
        tangentMode: 0
      m_PreInfinity: 2
      m_PostInfinity: 2
      m_RotationOrder: 4
    path: Dummy01/Bone01/Bone02/Point010
  - curve:
      serializedVersion: 2
      m_Curve:
      - serializedVersion: 2
        time: 0
        value: {x: -3.4006941, y: -2.688288, z: -1.3467059}
        inSlope: {x: -0, y: -3.5527133e-14, z: -0}
        outSlope: {x: -0, y: -3.5527133e-14, z: -0}
        tangentMode: 0
      - serializedVersion: 2
        time: 0.033333335
        value: {x: -3.4006941, y: -2.688288, z: -1.3467059}
        inSlope: {x: -0, y: -1.5225915e-14, z: -0}
        outSlope: {x: -0, y: -1.5225915e-14, z: -0}
        tangentMode: 0
      m_PreInfinity: 2
      m_PostInfinity: 2
      m_RotationOrder: 4
    path: Dummy01/Bone01/Bone02/Point007
  - curve:
      serializedVersion: 2
      m_Curve:
      - serializedVersion: 2
        time: 0
        value: {x: -3.9633877, y: -1.0450604, z: -2.1854773}
        inSlope: {x: -0, y: -8.881783e-15, z: -1.7763567e-14}
        outSlope: {x: -0, y: -8.881783e-15, z: -1.7763567e-14}
        tangentMode: 0
      - serializedVersion: 2
        time: 0.033333335
        value: {x: -3.9633877, y: -1.0450604, z: -2.1854773}
        inSlope: {x: -0, y: -3.806479e-15, z: -7.612958e-15}
        outSlope: {x: -0, y: -3.806479e-15, z: -7.612958e-15}
        tangentMode: 0
      m_PreInfinity: 2
      m_PostInfinity: 2
      m_RotationOrder: 4
    path: Dummy01/Bone01/Bone02/Point008
  - curve:
      serializedVersion: 2
      m_Curve:
      - serializedVersion: 2
        time: 0
        value: {x: -3.9616637, y: 2.146103, z: 1.6719558}
        inSlope: {x: -7.105427e-14, y: 3.5527133e-14, z: 3.5527133e-14}
        outSlope: {x: -7.105427e-14, y: 3.5527133e-14, z: 3.5527133e-14}
        tangentMode: 0
      - serializedVersion: 2
        time: 0.033333335
        value: {x: -3.9616637, y: 2.146103, z: 1.6719558}
        inSlope: {x: -3.045183e-14, y: 1.5225915e-14, z: 1.5225915e-14}
        outSlope: {x: -3.045183e-14, y: 1.5225915e-14, z: 1.5225915e-14}
        tangentMode: 0
      m_PreInfinity: 2
      m_PostInfinity: 2
      m_RotationOrder: 4
    path: Dummy01/Bone01/Bone02/Point004
  - curve:
      serializedVersion: 2
      m_Curve:
      - serializedVersion: 2
        time: 0
        value: {x: -2.5952523, y: 2.2621355, z: 2.6611915}
        inSlope: {x: -5.3290705e-14, y: 1.7763567e-14, z: 3.045183e-14}
        outSlope: {x: -5.3290705e-14, y: 1.7763567e-14, z: 3.045183e-14}
        tangentMode: 0
      - serializedVersion: 2
        time: 0.033333335
        value: {x: -2.5952523, y: 2.2621355, z: 2.6611915}
        inSlope: {x: -2.2838875e-14, y: 7.612958e-15, z: 7.105427e-14}
        outSlope: {x: -2.2838875e-14, y: 7.612958e-15, z: 7.105427e-14}
        tangentMode: 0
      m_PreInfinity: 2
      m_PostInfinity: 2
      m_RotationOrder: 4
    path: Dummy01/Bone01/Point001
  - curve:
      serializedVersion: 2
      m_Curve:
      - serializedVersion: 2
        time: 0
        value: {x: -2.876937, y: 3.9094045, z: 0.8522732}
        inSlope: {x: -4.060244e-14, y: -0, z: 1.1419435e-14}
        outSlope: {x: -4.060244e-14, y: -0, z: 1.1419435e-14}
        tangentMode: 0
      - serializedVersion: 2
        time: 0.033333335
        value: {x: -2.876937, y: 3.9094045, z: 0.8522732}
        inSlope: {x: 4.060244e-14, y: -0, z: -2.41077e-14}
        outSlope: {x: 4.060244e-14, y: -0, z: -2.41077e-14}
        tangentMode: 0
      m_PreInfinity: 2
      m_PostInfinity: 2
      m_RotationOrder: 4
    path: Dummy01/Bone01/Point002
  - curve:
      serializedVersion: 2
      m_Curve:
      - serializedVersion: 2
        time: 0
        value: {x: -3.7922943, y: 3.504157, z: -2.1577573}
        inSlope: {x: -0, y: 7.105427e-14, z: -3.5527133e-14}
        outSlope: {x: -0, y: 7.105427e-14, z: -3.5527133e-14}
        tangentMode: 0
      - serializedVersion: 2
        time: 0.033333335
        value: {x: -3.7922943, y: 3.504157, z: -2.1577573}
        inSlope: {x: -0, y: 3.045183e-14, z: -1.5225915e-14}
        outSlope: {x: -0, y: 3.045183e-14, z: -1.5225915e-14}
        tangentMode: 0
      m_PreInfinity: 2
      m_PostInfinity: 2
      m_RotationOrder: 4
    path: Dummy01/Bone01/Point009
  - curve:
      serializedVersion: 2
      m_Curve:
      - serializedVersion: 2
        time: 0
        value: {x: -2.5300145, y: -1.3829837, z: 1.9213945}
        inSlope: {x: -1.7763567e-14, y: -2.030122e-14, z: -0}
        outSlope: {x: -1.7763567e-14, y: -2.030122e-14, z: -0}
        tangentMode: 0
      - serializedVersion: 2
        time: 0.033333335
        value: {x: -2.5300145, y: -1.3829837, z: 1.9213945}
        inSlope: {x: -7.612958e-15, y: 2.030122e-14, z: -0}
        outSlope: {x: -7.612958e-15, y: 2.030122e-14, z: -0}
        tangentMode: 0
      m_PreInfinity: 2
      m_PostInfinity: 2
      m_RotationOrder: 4
    path: Dummy01/Bone01/Bone06
  - curve:
      serializedVersion: 2
      m_Curve:
      - serializedVersion: 2
        time: 0
        value: {x: -2.658839, y: -1.2491832, z: 2.0155551}
        inSlope: {x: 0, y: 0, z: 0}
        outSlope: {x: 0, y: 0, z: 0}
        tangentMode: 0
      - serializedVersion: 2
        time: 0.36666667
        value: {x: -2.658839, y: -1.2491832, z: 2.0155551}
        inSlope: {x: 0, y: 0, z: 0}
        outSlope: {x: 0, y: 0, z: 0}
        tangentMode: 0
      m_PreInfinity: 2
      m_PostInfinity: 2
      m_RotationOrder: 4
    path: Dummy01/Bone01/Bone08
  - curve:
      serializedVersion: 2
      m_Curve:
      - serializedVersion: 2
        time: 0
        value: {x: 1.2111509, y: 19.472908, z: 42.26911}
        inSlope: {x: 0, y: 0, z: 0}
        outSlope: {x: 0, y: 0, z: 0}
        tangentMode: 0
      - serializedVersion: 2
        time: 0.8333333
        value: {x: 1.2111509, y: 19.472908, z: 42.26911}
        inSlope: {x: 0, y: 0, z: 0}
        outSlope: {x: 0, y: 0, z: 0}
        tangentMode: 0
      m_PreInfinity: 2
      m_PostInfinity: 2
      m_RotationOrder: 4
    path: Camera01
  m_ScaleCurves:
  - curve:
      serializedVersion: 2
      m_Curve:
      - serializedVersion: 2
        time: 0
        value: {x: 1, y: 1, z: 1}
        inSlope: {x: 0, y: 0, z: 0}
        outSlope: {x: 0, y: 0, z: 0}
        tangentMode: 0
      - serializedVersion: 2
        time: 0.6
        value: {x: 1, y: 1, z: 1}
        inSlope: {x: 0, y: 0, z: 0}
        outSlope: {x: 0, y: 0, z: 0}
        tangentMode: 0
      - serializedVersion: 2
        time: 0.6666667
        value: {x: 0.9550683, y: 0.9550683, z: 0.9550683}
        inSlope: {x: -2.486277, y: -2.486277, z: -2.486277}
        outSlope: {x: -2.486277, y: -2.486277, z: -2.486277}
        tangentMode: 0
      - serializedVersion: 2
        time: 0.8000001
        value: {x: 0.22554687, y: 0.22554687, z: 0.22554687}
        inSlope: {x: -6.5764604, y: -6.5764604, z: -6.5764604}
        outSlope: {x: -6.5764604, y: -6.5764604, z: -6.5764604}
        tangentMode: 0
      - serializedVersion: 2
        time: 0.8333334
        value: {x: 0.010174, y: 0.010174, z: 0.010174}
        inSlope: {x: -6.461192, y: -6.461192, z: -6.461192}
        outSlope: {x: -6.461192, y: -6.461192, z: -6.461192}
        tangentMode: 0
      m_PreInfinity: 2
      m_PostInfinity: 2
      m_RotationOrder: 4
    path: Dummy01
  - curve:
      serializedVersion: 2
      m_Curve:
      - serializedVersion: 2
        time: 0
        value: {x: 1, y: 1, z: 1}
        inSlope: {x: 0, y: 0, z: 0}
        outSlope: {x: 0, y: 0, z: 0}
        tangentMode: 0
      - serializedVersion: 2
        time: 0.5666667
        value: {x: 1, y: 1, z: 1}
        inSlope: {x: 0, y: 0, z: 0}
        outSlope: {x: 0, y: 0, z: 0}
        tangentMode: 0
      m_PreInfinity: 2
      m_PostInfinity: 2
      m_RotationOrder: 4
    path: Dummy01/Bone01/Bone02
  - curve:
      serializedVersion: 2
      m_Curve:
      - serializedVersion: 2
        time: 0
        value: {x: 1, y: 1, z: 1}
        inSlope: {x: 0, y: 0, z: 0}
        outSlope: {x: 0, y: 0, z: 0}
        tangentMode: 0
      - serializedVersion: 2
        time: 0.5666667
        value: {x: 1, y: 1, z: 1}
        inSlope: {x: 0, y: 0, z: 0}
        outSlope: {x: 0, y: 0, z: 0}
        tangentMode: 0
      m_PreInfinity: 2
      m_PostInfinity: 2
      m_RotationOrder: 4
    path: Dummy01/Bone01/Bone02/Bone03
  - curve:
      serializedVersion: 2
      m_Curve:
      - serializedVersion: 2
        time: 0
        value: {x: 1, y: 1, z: 1}
        inSlope: {x: 0, y: 0, z: 0}
        outSlope: {x: 0, y: 0, z: 0}
        tangentMode: 0
      - serializedVersion: 2
        time: 0.5666667
        value: {x: 1, y: 1, z: 1}
        inSlope: {x: 0, y: 0, z: 0}
        outSlope: {x: 0, y: 0, z: 0}
        tangentMode: 0
      m_PreInfinity: 2
      m_PostInfinity: 2
      m_RotationOrder: 4
    path: Dummy01/Bone01/Bone02/Bone03/Bone04
  - curve:
      serializedVersion: 2
      m_Curve:
      - serializedVersion: 2
        time: 0
        value: {x: 1, y: 1, z: 1}
        inSlope: {x: 0, y: 0, z: 0}
        outSlope: {x: 0, y: 0, z: 0}
        tangentMode: 0
      - serializedVersion: 2
        time: 0.5666667
        value: {x: 1, y: 1, z: 1}
        inSlope: {x: 0, y: 0, z: 0}
        outSlope: {x: 0, y: 0, z: 0}
        tangentMode: 0
      m_PreInfinity: 2
      m_PostInfinity: 2
      m_RotationOrder: 4
    path: Dummy01/Bone01/Bone02/Bone03/Bone04/Bone05
  - curve:
      serializedVersion: 2
      m_Curve:
      - serializedVersion: 2
        time: 0
        value: {x: 1, y: 1, z: 1}
        inSlope: {x: 0, y: 0, z: 0}
        outSlope: {x: 0, y: 0, z: 0}
        tangentMode: 0
      - serializedVersion: 2
        time: 0.033333335
        value: {x: 1, y: 1, z: 1}
        inSlope: {x: 0, y: 0, z: 0}
        outSlope: {x: 0, y: 0, z: 0}
        tangentMode: 0
      m_PreInfinity: 2
      m_PostInfinity: 2
      m_RotationOrder: 4
    path: Dummy01/Bone01/Bone02/Bone03/Point005
  - curve:
      serializedVersion: 2
      m_Curve:
      - serializedVersion: 2
        time: 0
        value: {x: 1, y: 1, z: 1}
        inSlope: {x: 0, y: 0, z: 0}
        outSlope: {x: 0, y: 0, z: 0}
        tangentMode: 0
      - serializedVersion: 2
        time: 0.033333335
        value: {x: 1, y: 1, z: 1}
        inSlope: {x: 0, y: 0, z: 0}
        outSlope: {x: 0, y: 0, z: 0}
        tangentMode: 0
      m_PreInfinity: 2
      m_PostInfinity: 2
      m_RotationOrder: 4
    path: Dummy01/Bone01/Bone02/Point003
  - curve:
      serializedVersion: 2
      m_Curve:
      - serializedVersion: 2
        time: 0
        value: {x: 1, y: 1, z: 1}
        inSlope: {x: 0, y: 0, z: 0}
        outSlope: {x: 0, y: 0, z: 0}
        tangentMode: 0
      - serializedVersion: 2
        time: 0.033333335
        value: {x: 1, y: 1, z: 1}
        inSlope: {x: 0, y: 0, z: 0}
        outSlope: {x: 0, y: 0, z: 0}
        tangentMode: 0
      m_PreInfinity: 2
      m_PostInfinity: 2
      m_RotationOrder: 4
    path: Dummy01/Bone01/Bone02/Point006
  - curve:
      serializedVersion: 2
      m_Curve:
      - serializedVersion: 2
        time: 0
        value: {x: 1, y: 1, z: 1}
        inSlope: {x: 0, y: 0, z: 0}
        outSlope: {x: 0, y: 0, z: 0}
        tangentMode: 0
      - serializedVersion: 2
        time: 0.033333335
        value: {x: 1, y: 1, z: 1}
        inSlope: {x: 0, y: 0, z: 0}
        outSlope: {x: 0, y: 0, z: 0}
        tangentMode: 0
      m_PreInfinity: 2
      m_PostInfinity: 2
      m_RotationOrder: 4
    path: Dummy01/Bone01/Bone02/Point010
  - curve:
      serializedVersion: 2
      m_Curve:
      - serializedVersion: 2
        time: 0
        value: {x: 1, y: 1, z: 1}
        inSlope: {x: 0, y: 0, z: 0}
        outSlope: {x: 0, y: 0, z: 0}
        tangentMode: 0
      - serializedVersion: 2
        time: 0.033333335
        value: {x: 1, y: 1, z: 1}
        inSlope: {x: 0, y: 0, z: 0}
        outSlope: {x: 0, y: 0, z: 0}
        tangentMode: 0
      m_PreInfinity: 2
      m_PostInfinity: 2
      m_RotationOrder: 4
    path: Dummy01/Bone01/Bone02/Point007
  - curve:
      serializedVersion: 2
      m_Curve:
      - serializedVersion: 2
        time: 0
        value: {x: 1, y: 1, z: 1}
        inSlope: {x: 0, y: 0, z: 0}
        outSlope: {x: 0, y: 0, z: 0}
        tangentMode: 0
      - serializedVersion: 2
        time: 0.033333335
        value: {x: 1, y: 1, z: 1}
        inSlope: {x: 0, y: 0, z: 0}
        outSlope: {x: 0, y: 0, z: 0}
        tangentMode: 0
      m_PreInfinity: 2
      m_PostInfinity: 2
      m_RotationOrder: 4
    path: Dummy01/Bone01/Bone02/Point008
  - curve:
      serializedVersion: 2
      m_Curve:
      - serializedVersion: 2
        time: 0
        value: {x: 1, y: 1, z: 1}
        inSlope: {x: 0, y: 0, z: 0}
        outSlope: {x: 0, y: 0, z: 0}
        tangentMode: 0
      - serializedVersion: 2
        time: 0.033333335
        value: {x: 1, y: 1, z: 1}
        inSlope: {x: 0, y: 0, z: 0}
        outSlope: {x: 0, y: 0, z: 0}
        tangentMode: 0
      m_PreInfinity: 2
      m_PostInfinity: 2
      m_RotationOrder: 4
    path: Dummy01/Bone01/Bone02/Point004
  - curve:
      serializedVersion: 2
      m_Curve:
      - serializedVersion: 2
        time: 0
        value: {x: 1, y: 1, z: 1}
        inSlope: {x: 0, y: 0, z: 0}
        outSlope: {x: 0, y: 0, z: 0}
        tangentMode: 0
      - serializedVersion: 2
        time: 0.033333335
        value: {x: 1, y: 1, z: 1}
        inSlope: {x: 0, y: 0, z: 0}
        outSlope: {x: 0, y: 0, z: 0}
        tangentMode: 0
      m_PreInfinity: 2
      m_PostInfinity: 2
      m_RotationOrder: 4
    path: Dummy01/Bone01/Point001
  - curve:
      serializedVersion: 2
      m_Curve:
      - serializedVersion: 2
        time: 0
        value: {x: 1, y: 1, z: 1}
        inSlope: {x: 0, y: 0, z: 0}
        outSlope: {x: 0, y: 0, z: 0}
        tangentMode: 0
      - serializedVersion: 2
        time: 0.033333335
        value: {x: 1, y: 1, z: 1}
        inSlope: {x: 0, y: 0, z: 0}
        outSlope: {x: 0, y: 0, z: 0}
        tangentMode: 0
      m_PreInfinity: 2
      m_PostInfinity: 2
      m_RotationOrder: 4
    path: Dummy01/Bone01/Point002
  - curve:
      serializedVersion: 2
      m_Curve:
      - serializedVersion: 2
        time: 0
        value: {x: 1, y: 1, z: 1}
        inSlope: {x: 0, y: 0, z: 0}
        outSlope: {x: 0, y: 0, z: 0}
        tangentMode: 0
      - serializedVersion: 2
        time: 0.033333335
        value: {x: 1, y: 1, z: 1}
        inSlope: {x: 0, y: 0, z: 0}
        outSlope: {x: 0, y: 0, z: 0}
        tangentMode: 0
      m_PreInfinity: 2
      m_PostInfinity: 2
      m_RotationOrder: 4
    path: Dummy01/Bone01/Point009
  - curve:
      serializedVersion: 2
      m_Curve:
      - serializedVersion: 2
        time: 0
        value: {x: 1, y: 1, z: 1}
        inSlope: {x: 0, y: 0, z: 0}
        outSlope: {x: 0, y: 0, z: 0}
        tangentMode: 0
      - serializedVersion: 2
        time: 0.033333335
        value: {x: 1, y: 1, z: 1}
        inSlope: {x: 0, y: 0, z: 0}
        outSlope: {x: 0, y: 0, z: 0}
        tangentMode: 0
      m_PreInfinity: 2
      m_PostInfinity: 2
      m_RotationOrder: 4
    path: Dummy01/Bone01/Bone06
  - curve:
      serializedVersion: 2
      m_Curve:
      - serializedVersion: 2
        time: 0
        value: {x: 1, y: 1, z: 1}
        inSlope: {x: 0, y: 0, z: 0}
        outSlope: {x: 0, y: 0, z: 0}
        tangentMode: 0
      - serializedVersion: 2
        time: 0.36666667
        value: {x: 1, y: 1, z: 1}
        inSlope: {x: 0, y: 0, z: 0}
        outSlope: {x: 0, y: 0, z: 0}
        tangentMode: 0
      m_PreInfinity: 2
      m_PostInfinity: 2
      m_RotationOrder: 4
    path: Dummy01/Bone01/Bone08
  - curve:
      serializedVersion: 2
      m_Curve:
      - serializedVersion: 2
        time: 0
        value: {x: 1, y: 1, z: 1}
        inSlope: {x: 0, y: 0, z: 0}
        outSlope: {x: 0, y: 0, z: 0}
        tangentMode: 0
      - serializedVersion: 2
        time: 0.8333334
        value: {x: 1, y: 1, z: 1}
        inSlope: {x: 0, y: 0, z: 0}
        outSlope: {x: 0, y: 0, z: 0}
        tangentMode: 0
      m_PreInfinity: 2
      m_PostInfinity: 2
      m_RotationOrder: 4
    path: Camera01
  m_FloatCurves: []
  m_PPtrCurves: []
  m_SampleRate: 30
  m_WrapMode: 0
  m_Bounds:
    m_Center: {x: 0, y: 0, z: 0}
    m_Extent: {x: 0, y: 0, z: 0}
  m_ClipBindingConstant:
    genericBindings:
    - serializedVersion: 2
      path: 194112338
      attribute: 2
      script: {fileID: 0}
      typeID: 4
      customType: 0
      isPPtrCurve: 0
    - serializedVersion: 2
      path: 645622176
      attribute: 2
      script: {fileID: 0}
      typeID: 4
      customType: 0
      isPPtrCurve: 0
    - serializedVersion: 2
      path: 1796452142
      attribute: 2
      script: {fileID: 0}
      typeID: 4
      customType: 0
      isPPtrCurve: 0
    - serializedVersion: 2
      path: 718531303
      attribute: 2
      script: {fileID: 0}
      typeID: 4
      customType: 0
      isPPtrCurve: 0
    - serializedVersion: 2
      path: 555134393
      attribute: 2
      script: {fileID: 0}
      typeID: 4
      customType: 0
      isPPtrCurve: 0
    - serializedVersion: 2
      path: 2213077946
      attribute: 2
      script: {fileID: 0}
      typeID: 4
      customType: 0
      isPPtrCurve: 0
    - serializedVersion: 2
      path: 194112338
      attribute: 3
      script: {fileID: 0}
      typeID: 4
      customType: 0
      isPPtrCurve: 0
    - serializedVersion: 2
      path: 194112338
      attribute: 1
      script: {fileID: 0}
      typeID: 4
      customType: 0
      isPPtrCurve: 0
    - serializedVersion: 2
      path: 645622176
      attribute: 1
      script: {fileID: 0}
      typeID: 4
      customType: 0
      isPPtrCurve: 0
    - serializedVersion: 2
      path: 1796452142
      attribute: 1
      script: {fileID: 0}
      typeID: 4
      customType: 0
      isPPtrCurve: 0
    - serializedVersion: 2
      path: 718531303
      attribute: 1
      script: {fileID: 0}
      typeID: 4
      customType: 0
      isPPtrCurve: 0
    - serializedVersion: 2
      path: 2440645749
      attribute: 1
      script: {fileID: 0}
      typeID: 4
      customType: 0
      isPPtrCurve: 0
    - serializedVersion: 2
      path: 3740857592
      attribute: 1
      script: {fileID: 0}
      typeID: 4
      customType: 0
      isPPtrCurve: 0
    - serializedVersion: 2
      path: 777707408
      attribute: 1
      script: {fileID: 0}
      typeID: 4
      customType: 0
      isPPtrCurve: 0
    - serializedVersion: 2
      path: 1580215071
      attribute: 1
      script: {fileID: 0}
      typeID: 4
      customType: 0
      isPPtrCurve: 0
    - serializedVersion: 2
      path: 2924003179
      attribute: 1
      script: {fileID: 0}
      typeID: 4
      customType: 0
      isPPtrCurve: 0
    - serializedVersion: 2
      path: 691477385
      attribute: 1
      script: {fileID: 0}
      typeID: 4
      customType: 0
      isPPtrCurve: 0
    - serializedVersion: 2
      path: 3112699416
      attribute: 1
      script: {fileID: 0}
      typeID: 4
      customType: 0
      isPPtrCurve: 0
    - serializedVersion: 2
      path: 2956872243
      attribute: 1
      script: {fileID: 0}
      typeID: 4
      customType: 0
      isPPtrCurve: 0
    - serializedVersion: 2
      path: 378620835
      attribute: 1
      script: {fileID: 0}
      typeID: 4
      customType: 0
      isPPtrCurve: 0
    - serializedVersion: 2
      path: 2409110041
      attribute: 1
      script: {fileID: 0}
      typeID: 4
      customType: 0
      isPPtrCurve: 0
    - serializedVersion: 2
      path: 407552913
      attribute: 1
      script: {fileID: 0}
      typeID: 4
      customType: 0
      isPPtrCurve: 0
    - serializedVersion: 2
      path: 555134393
      attribute: 1
      script: {fileID: 0}
      typeID: 4
      customType: 0
      isPPtrCurve: 0
    - serializedVersion: 2
      path: 3333324990
      attribute: 1
      script: {fileID: 0}
      typeID: 4
      customType: 0
      isPPtrCurve: 0
    - serializedVersion: 2
      path: 217204294
      attribute: 1
      script: {fileID: 0}
      typeID: 4
      customType: 0
      isPPtrCurve: 0
    - serializedVersion: 2
      path: 2440645749
      attribute: 2
      script: {fileID: 0}
      typeID: 4
      customType: 0
      isPPtrCurve: 0
    - serializedVersion: 2
      path: 3740857592
      attribute: 2
      script: {fileID: 0}
      typeID: 4
      customType: 0
      isPPtrCurve: 0
    - serializedVersion: 2
      path: 777707408
      attribute: 2
      script: {fileID: 0}
      typeID: 4
      customType: 0
      isPPtrCurve: 0
    - serializedVersion: 2
      path: 1580215071
      attribute: 2
      script: {fileID: 0}
      typeID: 4
      customType: 0
      isPPtrCurve: 0
    - serializedVersion: 2
      path: 2924003179
      attribute: 2
      script: {fileID: 0}
      typeID: 4
      customType: 0
      isPPtrCurve: 0
    - serializedVersion: 2
      path: 691477385
      attribute: 2
      script: {fileID: 0}
      typeID: 4
      customType: 0
      isPPtrCurve: 0
    - serializedVersion: 2
      path: 3112699416
      attribute: 2
      script: {fileID: 0}
      typeID: 4
      customType: 0
      isPPtrCurve: 0
    - serializedVersion: 2
      path: 2956872243
      attribute: 2
      script: {fileID: 0}
      typeID: 4
      customType: 0
      isPPtrCurve: 0
    - serializedVersion: 2
      path: 378620835
      attribute: 2
      script: {fileID: 0}
      typeID: 4
      customType: 0
      isPPtrCurve: 0
    - serializedVersion: 2
      path: 2409110041
      attribute: 2
      script: {fileID: 0}
      typeID: 4
      customType: 0
      isPPtrCurve: 0
    - serializedVersion: 2
      path: 407552913
      attribute: 2
      script: {fileID: 0}
      typeID: 4
      customType: 0
      isPPtrCurve: 0
    - serializedVersion: 2
      path: 3333324990
      attribute: 2
      script: {fileID: 0}
      typeID: 4
      customType: 0
      isPPtrCurve: 0
    - serializedVersion: 2
      path: 217204294
      attribute: 2
      script: {fileID: 0}
      typeID: 4
      customType: 0
      isPPtrCurve: 0
    - serializedVersion: 2
      path: 645622176
      attribute: 3
      script: {fileID: 0}
      typeID: 4
      customType: 0
      isPPtrCurve: 0
    - serializedVersion: 2
      path: 1796452142
      attribute: 3
      script: {fileID: 0}
      typeID: 4
      customType: 0
      isPPtrCurve: 0
    - serializedVersion: 2
      path: 718531303
      attribute: 3
      script: {fileID: 0}
      typeID: 4
      customType: 0
      isPPtrCurve: 0
    - serializedVersion: 2
      path: 2440645749
      attribute: 3
      script: {fileID: 0}
      typeID: 4
      customType: 0
      isPPtrCurve: 0
    - serializedVersion: 2
      path: 3740857592
      attribute: 3
      script: {fileID: 0}
      typeID: 4
      customType: 0
      isPPtrCurve: 0
    - serializedVersion: 2
      path: 777707408
      attribute: 3
      script: {fileID: 0}
      typeID: 4
      customType: 0
      isPPtrCurve: 0
    - serializedVersion: 2
      path: 1580215071
      attribute: 3
      script: {fileID: 0}
      typeID: 4
      customType: 0
      isPPtrCurve: 0
    - serializedVersion: 2
      path: 2924003179
      attribute: 3
      script: {fileID: 0}
      typeID: 4
      customType: 0
      isPPtrCurve: 0
    - serializedVersion: 2
      path: 691477385
      attribute: 3
      script: {fileID: 0}
      typeID: 4
      customType: 0
      isPPtrCurve: 0
    - serializedVersion: 2
      path: 3112699416
      attribute: 3
      script: {fileID: 0}
      typeID: 4
      customType: 0
      isPPtrCurve: 0
    - serializedVersion: 2
      path: 2956872243
      attribute: 3
      script: {fileID: 0}
      typeID: 4
      customType: 0
      isPPtrCurve: 0
    - serializedVersion: 2
      path: 378620835
      attribute: 3
      script: {fileID: 0}
      typeID: 4
      customType: 0
      isPPtrCurve: 0
    - serializedVersion: 2
      path: 2409110041
      attribute: 3
      script: {fileID: 0}
      typeID: 4
      customType: 0
      isPPtrCurve: 0
    - serializedVersion: 2
      path: 407552913
      attribute: 3
      script: {fileID: 0}
      typeID: 4
      customType: 0
      isPPtrCurve: 0
    - serializedVersion: 2
      path: 555134393
      attribute: 3
      script: {fileID: 0}
      typeID: 4
      customType: 0
      isPPtrCurve: 0
    - serializedVersion: 2
      path: 3333324990
      attribute: 3
      script: {fileID: 0}
      typeID: 4
      customType: 0
      isPPtrCurve: 0
    - serializedVersion: 2
      path: 217204294
      attribute: 3
      script: {fileID: 0}
      typeID: 4
      customType: 0
      isPPtrCurve: 0
    pptrCurveMapping: []
  m_AnimationClipSettings:
    serializedVersion: 2
    m_AdditiveReferencePoseClip: {fileID: 0}
    m_AdditiveReferencePoseTime: 0
    m_StartTime: 0
    m_StopTime: 0.8333334
    m_OrientationOffsetY: 0
    m_Level: 0
    m_CycleOffset: 0
    m_HasAdditiveReferencePose: 0
    m_LoopTime: 0
    m_LoopBlend: 0
    m_LoopBlendOrientation: 0
    m_LoopBlendPositionY: 0
    m_LoopBlendPositionXZ: 0
    m_KeepOriginalOrientation: 0
    m_KeepOriginalPositionY: 1
    m_KeepOriginalPositionXZ: 0
    m_HeightFromFeet: 0
    m_Mirror: 0
  m_EditorCurves: []
  m_EulerEditorCurves: []
  m_HasGenericRootTransform: 0
  m_HasMotionFloatCurves: 0
  m_GenerateMotionCurves: 0
  m_Events: []
