%YAML 1.1
%TAG !u! tag:unity3d.com,2011:
--- !u!1001 &7729743039722544664
PrefabInstance:
  m_ObjectHideFlags: 0
  serializedVersion: 2
  m_Modification:
    m_TransformParent: {fileID: 0}
    m_Modifications:
    - target: {fileID: 7880738727072286178, guid: 210c0aaf30c4faa47bc50ae19dfc1de6,
        type: 3}
      propertyPath: m_Name
      value: QuyGio
      objectReference: {fileID: 0}
    - target: {fileID: 7880738727071930818, guid: 210c0aaf30c4faa47bc50ae19dfc1de6,
        type: 3}
      propertyPath: m_LocalPosition.x
      value: 1
      objectReference: {fileID: 0}
    - target: {fileID: 7880738727071930818, guid: 210c0aaf30c4faa47bc50ae19dfc1de6,
        type: 3}
      propertyPath: m_LocalPosition.y
      value: 0
      objectReference: {fileID: 0}
    - target: {fileID: 7880738727071930818, guid: 210c0aaf30c4faa47bc50ae19dfc1de6,
        type: 3}
      propertyPath: m_LocalPosition.z
      value: 0
      objectReference: {fileID: 0}
    - target: {fileID: 7880738727071930818, guid: 210c0aaf30c4faa47bc50ae19dfc1de6,
        type: 3}
      propertyPath: m_LocalRotation.x
      value: -0
      objectReference: {fileID: 0}
    - target: {fileID: 7880738727071930818, guid: 210c0aaf30c4faa47bc50ae19dfc1de6,
        type: 3}
      propertyPath: m_LocalRotation.y
      value: -0
      objectReference: {fileID: 0}
    - target: {fileID: 7880738727071930818, guid: 210c0aaf30c4faa47bc50ae19dfc1de6,
        type: 3}
      propertyPath: m_LocalRotation.z
      value: -0
      objectReference: {fileID: 0}
    - target: {fileID: 7880738727071930818, guid: 210c0aaf30c4faa47bc50ae19dfc1de6,
        type: 3}
      propertyPath: m_LocalRotation.w
      value: 1
      objectReference: {fileID: 0}
    - target: {fileID: 7880738727071930818, guid: 210c0aaf30c4faa47bc50ae19dfc1de6,
        type: 3}
      propertyPath: m_RootOrder
      value: 0
      objectReference: {fileID: 0}
    - target: {fileID: 7880738727071930818, guid: 210c0aaf30c4faa47bc50ae19dfc1de6,
        type: 3}
      propertyPath: m_LocalEulerAnglesHint.x
      value: 0
      objectReference: {fileID: 0}
    - target: {fileID: 7880738727071930818, guid: 210c0aaf30c4faa47bc50ae19dfc1de6,
        type: 3}
      propertyPath: m_LocalEulerAnglesHint.y
      value: 0
      objectReference: {fileID: 0}
    - target: {fileID: 7880738727071930818, guid: 210c0aaf30c4faa47bc50ae19dfc1de6,
        type: 3}
      propertyPath: m_LocalEulerAnglesHint.z
      value: 0
      objectReference: {fileID: 0}
    - target: {fileID: 7880738727071930818, guid: 210c0aaf30c4faa47bc50ae19dfc1de6,
        type: 3}
      propertyPath: m_LocalScale.x
      value: 3
      objectReference: {fileID: 0}
    - target: {fileID: 7880738727071930818, guid: 210c0aaf30c4faa47bc50ae19dfc1de6,
        type: 3}
      propertyPath: m_LocalScale.y
      value: 3
      objectReference: {fileID: 0}
    - target: {fileID: 7880738727071930818, guid: 210c0aaf30c4faa47bc50ae19dfc1de6,
        type: 3}
      propertyPath: m_LocalScale.z
      value: 3
      objectReference: {fileID: 0}
    - target: {fileID: 6252086900897119569, guid: 210c0aaf30c4faa47bc50ae19dfc1de6,
        type: 3}
      propertyPath: style
      value: 6
      objectReference: {fileID: 0}
    m_RemovedComponents: []
  m_SourcePrefab: {fileID: 100100000, guid: 210c0aaf30c4faa47bc50ae19dfc1de6, type: 3}
