%YAML 1.1
%TAG !u! tag:unity3d.com,2011:
--- !u!1001 &7177844014474740251
PrefabInstance:
  m_ObjectHideFlags: 0
  serializedVersion: 2
  m_Modification:
    m_TransformParent: {fileID: 0}
    m_Modifications:
    - target: {fileID: 6013821267608602173, guid: 28337fab3c4da7b45a4f0eac0c4eb3a2,
        type: 3}
      propertyPath: m_Name
      value: TruDoc
      objectReference: {fileID: 0}
    - target: {fileID: 6013821267609098781, guid: 28337fab3c4da7b45a4f0eac0c4eb3a2,
        type: 3}
      propertyPath: m_LocalPosition.x
      value: 2.541
      objectReference: {fileID: 0}
    - target: {fileID: 6013821267609098781, guid: 28337fab3c4da7b45a4f0eac0c4eb3a2,
        type: 3}
      propertyPath: m_LocalPosition.y
      value: 0
      objectReference: {fileID: 0}
    - target: {fileID: 6013821267609098781, guid: 28337fab3c4da7b45a4f0eac0c4eb3a2,
        type: 3}
      propertyPath: m_LocalPosition.z
      value: 0.98
      objectReference: {fileID: 0}
    - target: {fileID: 6013821267609098781, guid: 28337fab3c4da7b45a4f0eac0c4eb3a2,
        type: 3}
      propertyPath: m_LocalRotation.x
      value: -0
      objectReference: {fileID: 0}
    - target: {fileID: 6013821267609098781, guid: 28337fab3c4da7b45a4f0eac0c4eb3a2,
        type: 3}
      propertyPath: m_LocalRotation.y
      value: -0
      objectReference: {fileID: 0}
    - target: {fileID: 6013821267609098781, guid: 28337fab3c4da7b45a4f0eac0c4eb3a2,
        type: 3}
      propertyPath: m_LocalRotation.z
      value: -0
      objectReference: {fileID: 0}
    - target: {fileID: 6013821267609098781, guid: 28337fab3c4da7b45a4f0eac0c4eb3a2,
        type: 3}
      propertyPath: m_LocalRotation.w
      value: 1
      objectReference: {fileID: 0}
    - target: {fileID: 6013821267609098781, guid: 28337fab3c4da7b45a4f0eac0c4eb3a2,
        type: 3}
      propertyPath: m_RootOrder
      value: 0
      objectReference: {fileID: 0}
    - target: {fileID: 6013821267609098781, guid: 28337fab3c4da7b45a4f0eac0c4eb3a2,
        type: 3}
      propertyPath: m_LocalEulerAnglesHint.x
      value: 0
      objectReference: {fileID: 0}
    - target: {fileID: 6013821267609098781, guid: 28337fab3c4da7b45a4f0eac0c4eb3a2,
        type: 3}
      propertyPath: m_LocalEulerAnglesHint.y
      value: 0
      objectReference: {fileID: 0}
    - target: {fileID: 6013821267609098781, guid: 28337fab3c4da7b45a4f0eac0c4eb3a2,
        type: 3}
      propertyPath: m_LocalEulerAnglesHint.z
      value: 0
      objectReference: {fileID: 0}
    - target: {fileID: 6013821267609098781, guid: 28337fab3c4da7b45a4f0eac0c4eb3a2,
        type: 3}
      propertyPath: m_LocalScale.x
      value: 1
      objectReference: {fileID: 0}
    - target: {fileID: 6013821267609098781, guid: 28337fab3c4da7b45a4f0eac0c4eb3a2,
        type: 3}
      propertyPath: m_LocalScale.y
      value: 1
      objectReference: {fileID: 0}
    - target: {fileID: 6013821267609098781, guid: 28337fab3c4da7b45a4f0eac0c4eb3a2,
        type: 3}
      propertyPath: m_LocalScale.z
      value: 1
      objectReference: {fileID: 0}
    - target: {fileID: 600694249584130537, guid: 28337fab3c4da7b45a4f0eac0c4eb3a2,
        type: 3}
      propertyPath: m_Speed
      value: 1.5
      objectReference: {fileID: 0}
    m_RemovedComponents: []
  m_SourcePrefab: {fileID: 100100000, guid: 28337fab3c4da7b45a4f0eac0c4eb3a2, type: 3}
