{
  "data": [
    {
      "ID": 1,
      "Name": "chapter1",
      "levels_exp": [
        30,
        60,
        90,
        120,
        180,
        210,
        240,
        270,
        300,
        1
      ]
    },
    {
      "ID": 2,
      "Name": "chapter1",
      "levels_exp": [
        35,
        65,
        95,
        130,
        165,
        200,
        235,
        300,
        305,
        340
      ]
    },
    {
      "ID": 3,
      "Name": "chapter1",
      "levels_exp": [
        35,
        75,
        115,
        155,
        195,
        230,
        265,
        300,
        335,
        370
      ]
    },
    {
      "ID": 4,
      "Name": "chapter1",
      "levels_exp": [
        40,
        80,
        120,
        160,
        200,
        240,
        280,
        320,
        360,
        400
      ]
    },
    {
      "ID": 5,
      "Name": "chapter1",
      "levels_exp": [
        50,
        95,
        140,
        185,
        230,
        300,
        345,
        390,
        435,
        480
      ]
    },
    {
      "ID": 6,
      "Name": "chapter1",
      "levels_exp": [
        55,
        110,
        165,
        220,
        275,
        330,
        385,
        440,
        495,
        550
      ]
    },
    {
      "ID": 7,
      "Name": "chapter1",
      "levels_exp": [
        250,
        325,
        400,
        475,
        550,
        625,
        700,
        775,
        850,
        925
      ]
    },
    {
      "ID": 8,
      "Name": "chapter1",
      "levels_exp": [
        70,
        140,
        210,
        280,
        350,
        420,
        490,
        560,
        630,
        700
      ]
    },
    {
      "ID": 9,
      "Name": "chapter1",
      "levels_exp": [
        90,
        190,
        290,
        390,
        490,
        590,
        690,
        790,
        890,
        990
      ]
    },
    {
      "ID": 10,
      "Name": "chapter1",
      "levels_exp": [
        150,
        300,
        450,
        600,
        700,
        750,
        800,
        850,
        1000,
        1200
      ]
    }
  ]
}