﻿{
    "data": [
        {
            "id": "5",
            "gem": "0",
            "ads_rate": "1"
        },
        {
            "id": "15",
            "gem": "0",
            "ads_rate": "1"
        },
        {
            "id": "25",
            "gem": "0",
            "ads_rate": "1"
        },
        {
            "id": "35",
            "gem": "0",
            "ads_rate": "1"
        },
		{
            "id": "45",
            "gem": "0",
            "ads_rate": "1"
        },
        {
            "id": "55",
            "gem": "0",
            "ads_rate": "1"
        },
        {
            "id": "65",
            "gem": "0",
            "ads_rate": "1"
        },
        {
            "id": "75",
            "gem": "0",
            "ads_rate": "1"
        },
        {
            "id": "85",
            "gem": "0",
            "ads_rate": "1"
        },
        {
            "id": "102",
            "gem": "0",
            "ads_rate": "1"
        },
        {
            "id": "104",
            "gem": "0",
            "ads_rate": "1"
        },
        {
            "id": "107",
            "gem": "0",
            "ads_rate": "1"
        },
        {
            "id": "109",
            "gem": "0",
            "ads_rate": "1"
        },
        {
            "id": "112",
            "gem": "0",
            "ads_rate": "1"
        },
        {
            "id": "114",
            "gem": "0",
            "ads_rate": "1"
        },
        {
            "id": "117",
            "gem": "0",
            "ads_rate": "1"
        },
        {
            "id": "119",
            "gem": "0",
            "ads_rate": "1"
        },
        {
            "id": "155",
            "gem": "0",
            "ads_rate": "1"
        },
        {
            "id": "165",
            "gem": "0",
            "ads_rate": "1"
        },
        {
            "id": "175",
            "gem": "0",
            "ads_rate": "1"
        },
        {
            "id": "185",
            "gem": "0",
            "ads_rate": "1"
        },
        {
            "id": "205",
            "gem": "0",
            "ads_rate": "1"
        },
        {
            "id": "215",
            "gem": "0",
            "ads_rate": "1"
        },
        {
            "id": "225",
            "gem": "0",
            "ads_rate": "1"
        },
        {
            "id": "235",
            "gem": "0",
            "ads_rate": "1"
        },
        {
            "id": "252",
            "gem": "0",
            "ads_rate": "1"
        },
        {
            "id": "254",
            "gem": "0",
            "ads_rate": "1"
        },
        {
            "id": "257",
            "gem": "0",
            "ads_rate": "1"
        },
        {
            "id": "259",
            "gem": "0",
            "ads_rate": "1"
        },
        {
            "id": "262",
            "gem": "0",
            "ads_rate": "1"
        },
        {
            "id": "264",
            "gem": "0",
            "ads_rate": "1"
        },
        {
            "id": "267",
            "gem": "0",
            "ads_rate": "1"
        },
        {
            "id": "269",
            "gem": "0",
            "ads_rate": "1"
        },
        {
            "id": "355",
            "gem": "0",
            "ads_rate": "1"
        },
        {
            "id": "365",
            "gem": "0",
            "ads_rate": "1"
        },
        {
            "id": "375",
            "gem": "0",
            "ads_rate": "1"
        },
        {
            "id": "385",
            "gem": "0",
            "ads_rate": "1"
        },
        {
            "id": "405",
            "gem": "0",
            "ads_rate": "1"
        },
        {
            "id": "415",
            "gem": "0",
            "ads_rate": "1"
        },
        {
            "id": "425",
            "gem": "0",
            "ads_rate": "1"
        },
        {
            "id": "435",
            "gem": "0",
            "ads_rate": "1"
        },
        {
            "id": "452",
            "gem": "0",
            "ads_rate": "1"
        },
        {
            "id": "454",
            "gem": "0",
            "ads_rate": "1"
        },
        {
            "id": "457",
            "gem": "0",
            "ads_rate": "1"
        },
        {
            "id": "459",
            "gem": "0",
            "ads_rate": "1"
        },
        {
            "id": "462",
            "gem": "0",
            "ads_rate": "1"
        },
        {
            "id": "464",
            "gem": "0",
            "ads_rate": "1"
        },
        {
            "id": "467",
            "gem": "0",
            "ads_rate": "1"
        },
        {
            "id": "469",
            "gem": "0",
            "ads_rate": "1"
        },
        {
            "id": "1005",
            "gem": "0",
            "ads_rate": "1"
        },
        {
            "id": "1015",
            "gem": "0",
            "ads_rate": "1"
        },
        {
            "id": "1025",
            "gem": "0",
            "ads_rate": "1"
        },
        {
            "id": "1035",
            "gem": "0",
            "ads_rate": "1"
        },
        {
            "id": "1055",
            "gem": "0",
            "ads_rate": "1"
        },
        {
            "id": "1065",
            "gem": "0",
            "ads_rate": "1"
        },
        {
            "id": "1075",
            "gem": "0",
            "ads_rate": "1"
        },
        {
            "id": "1085",
            "gem": "0",
            "ads_rate": "1"
        },
        {
            "id": "1102",
            "gem": "0",
            "ads_rate": "1"
        },
        {
            "id": "1104",
            "gem": "0",
            "ads_rate": "1"
        },
        {
            "id": "1107",
            "gem": "0",
            "ads_rate": "1"
        },
        {
            "id": "1109",
            "gem": "0",
            "ads_rate": "1"
        },
        {
            "id": "1112",
            "gem": "0",
            "ads_rate": "1"
        },
        {
            "id": "1114",
            "gem": "0",
            "ads_rate": "1"
        },
        {
            "id": "1117",
            "gem": "0",
            "ads_rate": "1"
        },
        {
            "id": "1119",
            "gem": "0",
            "ads_rate": "1"
        },
        {
            "id": "1155",
            "gem": "0",
            "ads_rate": "1"
        },
        {
            "id": "1165",
            "gem": "0",
            "ads_rate": "1"
        },
        {
            "id": "1175",
            "gem": "0",
            "ads_rate": "1"
        },
        {
            "id": "1185",
            "gem": "0",
            "ads_rate": "1"
        },
        {
            "id": "1205",
            "gem": "0",
            "ads_rate": "1"
        },
        {
            "id": "1215",
            "gem": "0",
            "ads_rate": "1"
        },
        {
            "id": "1225",
            "gem": "0",
            "ads_rate": "1"
        },
        {
            "id": "1235",
            "gem": "0",
            "ads_rate": "1"
        },
        {
            "id": "1252",
            "gem": "0",
            "ads_rate": "1"
        },
        {
            "id": "1254",
            "gem": "0",
            "ads_rate": "1"
        },
        {
            "id": "1257",
            "gem": "0",
            "ads_rate": "1"
        },
        {
            "id": "1259",
            "gem": "0",
            "ads_rate": "1"
        },
        {
            "id": "1262",
            "gem": "0",
            "ads_rate": "1"
        },
        {
            "id": "1264",
            "gem": "0",
            "ads_rate": "1"
        },
        {
            "id": "1267",
            "gem": "0",
            "ads_rate": "1"
        },
        {
            "id": "1269",
            "gem": "0",
            "ads_rate": "1"
        },
        {
            "id": "1355",
            "gem": "0",
            "ads_rate": "1"
        },
        {
            "id": "1365",
            "gem": "0",
            "ads_rate": "1"
        },
        {
            "id": "1375",
            "gem": "0",
            "ads_rate": "1"
        },
        {
            "id": "1385",
            "gem": "0",
            "ads_rate": "1"
        },
        {
            "id": "1405",
            "gem": "0",
            "ads_rate": "1"
        },
        {
            "id": "1415",
            "gem": "0",
            "ads_rate": "1"
        },
        {
            "id": "1425",
            "gem": "0",
            "ads_rate": "1"
        },
        {
            "id": "1435",
            "gem": "0",
            "ads_rate": "1"
        },
        {
            "id": "1452",
            "gem": "0",
            "ads_rate": "1"
        },
        {
            "id": "10005",
            "gem": "0",
            "ads_rate": "1"
        },
        {
            "id": "10015",
            "gem": "0",
            "ads_rate": "1"
        },
        {
            "id": "10025",
            "gem": "0",
            "ads_rate": "1"
        },
        {
            "id": "10035",
            "gem": "0",
            "ads_rate": "1"
        },
        {
            "id": "10055",
            "gem": "0",
            "ads_rate": "1"
        },
        {
            "id": "10065",
            "gem": "0",
            "ads_rate": "1"
        },
        {
            "id": "10075",
            "gem": "0",
            "ads_rate": "1"
        },
        {
            "id": "10085",
            "gem": "0",
            "ads_rate": "1"
        },
        {
            "id": "10102",
            "gem": "0",
            "ads_rate": "1"
        },
        {
            "id": "10104",
            "gem": "0",
            "ads_rate": "1"
        },
        {
            "id": "10107",
            "gem": "0",
            "ads_rate": "1"
        },
        {
            "id": "10109",
            "gem": "0",
            "ads_rate": "1"
        },
        {
            "id": "10112",
            "gem": "0",
            "ads_rate": "1"
        },
        {
            "id": "10114",
            "gem": "0",
            "ads_rate": "1"
        },
        {
            "id": "10117",
            "gem": "0",
            "ads_rate": "1"
        },
        {
            "id": "10119",
            "gem": "0",
            "ads_rate": "1"
        },
        {
            "id": "10155",
            "gem": "0",
            "ads_rate": "1"
        },
        {
            "id": "10165",
            "gem": "0",
            "ads_rate": "1"
        },
        {
            "id": "10175",
            "gem": "0",
            "ads_rate": "1"
        },
        {
            "id": "10185",
            "gem": "0",
            "ads_rate": "1"
        },
        {
            "id": "10205",
            "gem": "0",
            "ads_rate": "1"
        },
        {
            "id": "10215",
            "gem": "0",
            "ads_rate": "1"
        },
        {
            "id": "10225",
            "gem": "0",
            "ads_rate": "1"
        },
        {
            "id": "10235",
            "gem": "0",
            "ads_rate": "1"
        },
        {
            "id": "10252",
            "gem": "0",
            "ads_rate": "1"
        },
        {
            "id": "10254",
            "gem": "0",
            "ads_rate": "1"
        },
        {
            "id": "10257",
            "gem": "0",
            "ads_rate": "1"
        },
        {
            "id": "10259",
            "gem": "0",
            "ads_rate": "1"
        },
        {
            "id": "10262",
            "gem": "0",
            "ads_rate": "1"
        },
        {
            "id": "10264",
            "gem": "0",
            "ads_rate": "1"
        },
        {
            "id": "10267",
            "gem": "0",
            "ads_rate": "1"
        },
        {
            "id": "10269",
            "gem": "0",
            "ads_rate": "1"
        },
        {
            "id": "10355",
            "gem": "0",
            "ads_rate": "1"
        },
        {
            "id": "10365",
            "gem": "0",
            "ads_rate": "1"
        },
        {
            "id": "10375",
            "gem": "0",
            "ads_rate": "1"
        },
        {
            "id": "10385",
            "gem": "0",
            "ads_rate": "1"
        },
        {
            "id": "10405",
            "gem": "0",
            "ads_rate": "1"
        },
        {
            "id": "10415",
            "gem": "0",
            "ads_rate": "1"
        },
        {
            "id": "10425",
            "gem": "0",
            "ads_rate": "1"
        },
        {
            "id": "10435",
            "gem": "0",
            "ads_rate": "1"
        },
        {
            "id": "10452",
            "gem": "0",
            "ads_rate": "1"
        },
        {
            "id": "10454",
            "gem": "0",
            "ads_rate": "1"
        },
        {
            "id": "1050",
            "gem": "0",
            "ads_rate": "1"
        },
        {
            "id": "1051",
            "gem": "0",
            "ads_rate": "1"
        },
        {
            "id": "1052",
            "gem": "0",
            "ads_rate": "1"
        },
        {
            "id": "1053",
            "gem": "0",
            "ads_rate": "1"
        },
        {
            "id": "1054",
            "gem": "0",
            "ads_rate": "1"
        },
        {
            "id": "1056",
            "gem": "0",
            "ads_rate": "1"
        },
        {
            "id": "1057",
            "gem": "0",
            "ads_rate": "1"
        },
        {
            "id": "1058",
            "gem": "0",
            "ads_rate": "1"
        },
        {
            "id": "1059",
            "gem": "0",
            "ads_rate": "1"
        },
        {
            "id": "1060",
            "gem": "0",
            "ads_rate": "1"
        }

    ]
}