%YAML 1.1
%TAG !u! tag:unity3d.com,2011:
--- !u!74 &7400000
AnimationClip:
  m_ObjectHideFlags: 0
  m_CorrespondingSourceObject: {fileID: 0}
  m_PrefabInstance: {fileID: 0}
  m_PrefabAsset: {fileID: 0}
  m_Name: codai_Atk
  serializedVersion: 6
  m_Legacy: 0
  m_Compressed: 0
  m_UseHighQualityCurve: 1
  m_RotationCurves:
  - curve:
      serializedVersion: 2
      m_Curve:
      - serializedVersion: 3
        time: 0
        value: {x: -0.017044872, y: -0.01902925, z: -0.66696906, w: 0.7446473}
        inSlope: {x: 0.03927821, y: 0.03871936, z: -0.04910588, w: -0.042257305}
        outSlope: {x: 0.03927821, y: 0.03871936, z: -0.04910588, w: -0.042257305}
        tangentMode: 0
        weightedMode: 0
        inWeight: {x: 0.33333334, y: 0.33333334, z: 0.33333334, w: 0.33333334}
        outWeight: {x: 0.33333334, y: 0.33333334, z: 0.33333334, w: 0.33333334}
      - serializedVersion: 3
        time: 0.26666668
        value: {x: 0.0010570261, y: -0.0015875319, z: -0.72155637, w: 0.69235307}
        inSlope: {x: -0.027858676, y: -0.030812249, z: -0.164288, w: -0.17094703}
        outSlope: {x: -0.027858676, y: -0.030812249, z: -0.164288, w: -0.17094703}
        tangentMode: 0
        weightedMode: 0
        inWeight: {x: 0.33333334, y: 0.33333334, z: 0.33333334, w: 0.33333334}
        outWeight: {x: 0.33333334, y: 0.33333334, z: 0.33333334, w: 0.33333334}
      - serializedVersion: 3
        time: 0.6333334
        value: {x: -0.034436606, y: -0.038220875, z: -0.74702203, w: 0.6628057}
        inSlope: {x: -0.03875785, y: -0.039661754, z: 0.0018936393, w: -0.0020912278}
        outSlope: {x: -0.03875785, y: -0.039661754, z: 0.0018936393, w: -0.0020912278}
        tangentMode: 0
        weightedMode: 0
        inWeight: {x: 0.33333334, y: 0.33333334, z: 0.33333334, w: 0.33333334}
        outWeight: {x: 0.33333334, y: 0.33333334, z: 0.33333334, w: 0.33333334}
      - serializedVersion: 3
        time: 0.7666667
        value: {x: -0.014063566, y: -0.017477596, z: -0.73718107, w: 0.6753228}
        inSlope: {x: 0.2863509, y: 0.2930444, z: 0.24551043, w: 0.28043902}
        outSlope: {x: 0.2863509, y: 0.2930444, z: 0.24551043, w: 0.28043902}
        tangentMode: 0
        weightedMode: 0
        inWeight: {x: 0.33333334, y: 0.33333334, z: 0.33333334, w: 0.33333334}
        outWeight: {x: 0.33333334, y: 0.33333334, z: 0.33333334, w: 0.33333334}
      - serializedVersion: 3
        time: 0.90000004
        value: {x: -0.0027589686, y: -0.005139935, z: -0.68567866, w: 0.727881}
        inSlope: {x: -0.15107383, y: -0.14425595, z: 0.35460418, w: 0.33349878}
        outSlope: {x: -0.15107383, y: -0.14425595, z: 0.35460418, w: 0.33349878}
        tangentMode: 0
        weightedMode: 0
        inWeight: {x: 0.33333334, y: 0.33333334, z: 0.33333334, w: 0.33333334}
        outWeight: {x: 0.33333334, y: 0.33333334, z: 0.33333334, w: 0.33333334}
      - serializedVersion: 3
        time: 1
        value: {x: -0.017044872, y: -0.01902925, z: -0.66696906, w: 0.7446473}
        inSlope: {x: -0.07129195, y: -0.06974683, z: 0.06434983, w: 0.05460625}
        outSlope: {x: -0.07129195, y: -0.06974683, z: 0.06434983, w: 0.05460625}
        tangentMode: 0
        weightedMode: 0
        inWeight: {x: 0.33333334, y: 0.33333334, z: 0.33333334, w: 0.33333334}
        outWeight: {x: 0.33333334, y: 0.33333334, z: 0.33333334, w: 0.33333334}
      m_PreInfinity: 2
      m_PostInfinity: 2
      m_RotationOrder: 4
    path: Bone001
  - curve:
      serializedVersion: 2
      m_Curve:
      - serializedVersion: 3
        time: 0
        value: {x: 0.012235294, y: 0.07911822, z: -0.15361089, w: 0.9848829}
        inSlope: {x: 0.012778071, y: -0.88140535, z: -0.550092, w: -0.033438206}
        outSlope: {x: 0.012778071, y: -0.88140535, z: -0.550092, w: -0.033438206}
        tangentMode: 0
        weightedMode: 0
        inWeight: {x: 0.33333334, y: 0.33333334, z: 0.33333334, w: 0.33333334}
        outWeight: {x: 0.33333334, y: 0.33333334, z: 0.33333334, w: 0.33333334}
      - serializedVersion: 3
        time: 0.033333335
        value: {x: 0.01266123, y: 0.049738042, z: -0.17194729, w: 0.9837683}
        inSlope: {x: -0.030209957, y: -1.4111855, z: -0.8587393, w: -0.113018446}
        outSlope: {x: -0.030209957, y: -1.4111855, z: -0.8587393, w: -0.113018446}
        tangentMode: 0
        weightedMode: 0
        inWeight: {x: 0.33333334, y: 0.33333334, z: 0.33333334, w: 0.33333334}
        outWeight: {x: 0.33333334, y: 0.33333334, z: 0.33333334, w: 0.33333334}
      - serializedVersion: 3
        time: 0.06666667
        value: {x: 0.010221297, y: -0.014960817, z: -0.21086018, w: 0.9773483}
        inSlope: {x: -0.13755366, y: -1.9375064, z: -1.1301863, w: -0.27142432}
        outSlope: {x: -0.13755366, y: -1.9375064, z: -1.1301863, w: -0.27142432}
        tangentMode: 0
        weightedMode: 0
        inWeight: {x: 0.33333334, y: 0.33333334, z: 0.33333334, w: 0.33333334}
        outWeight: {x: 0.33333334, y: 0.33333334, z: 0.33333334, w: 0.33333334}
      - serializedVersion: 3
        time: 0.13333334
        value: {x: 0.00078552886, y: -0.109015964, z: -0.2626556, w: 0.9587111}
        inSlope: {x: 0.10481571, y: -0.16533539, z: -0.011619106, w: -0.018292665}
        outSlope: {x: 0.10481571, y: -0.16533539, z: -0.011619106, w: -0.018292665}
        tangentMode: 0
        weightedMode: 0
        inWeight: {x: 0.33333334, y: 0.33333334, z: 0.33333334, w: 0.33333334}
        outWeight: {x: 0.33333334, y: 0.33333334, z: 0.33333334, w: 0.33333334}
      - serializedVersion: 3
        time: 0.23333335
        value: {x: 0.0401586, y: 0.024066677, z: -0.15817022, w: 0.9863013}
        inSlope: {x: 0.28122434, y: 1.9876151, z: 1.6422298, w: 0.19987555}
        outSlope: {x: 0.28122434, y: 1.9876151, z: 1.6422298, w: 0.19987555}
        tangentMode: 0
        weightedMode: 0
        inWeight: {x: 0.33333334, y: 0.33333334, z: 0.33333334, w: 0.33333334}
        outWeight: {x: 0.33333334, y: 0.33333334, z: 0.33333334, w: 0.33333334}
      - serializedVersion: 3
        time: 0.3
        value: {x: 0.042869158, y: 0.14287522, z: -0.049611907, w: 0.9875665}
        inSlope: {x: -0.10774602, y: 1.0972656, z: 1.3015053, w: -0.061233945}
        outSlope: {x: -0.10774602, y: 1.0972656, z: 1.3015053, w: -0.061233945}
        tangentMode: 0
        weightedMode: 0
        inWeight: {x: 0.33333334, y: 0.33333334, z: 0.33333334, w: 0.33333334}
        outWeight: {x: 0.33333334, y: 0.33333334, z: 0.33333334, w: 0.33333334}
      - serializedVersion: 3
        time: 0.40000004
        value: {x: 0.032703202, y: 0.1539144, z: 0.030953337, w: 0.9870576}
        inSlope: {x: -0.059344627, y: -0.29974347, z: 0.62430316, w: 0.02909838}
        outSlope: {x: -0.059344627, y: -0.29974347, z: 0.62430316, w: 0.02909838}
        tangentMode: 0
        weightedMode: 0
        inWeight: {x: 0.33333334, y: 0.33333334, z: 0.33333334, w: 0.33333334}
        outWeight: {x: 0.33333334, y: 0.33333334, z: 0.33333334, w: 0.33333334}
      - serializedVersion: 3
        time: 0.6666667
        value: {x: 0.035744358, y: 0.0548312, z: 0.122587256, w: 0.990297}
        inSlope: {x: -0.0068905232, y: -0.04074543, z: -0.0914498, w: 0.013453947}
        outSlope: {x: -0.0068905232, y: -0.04074543, z: -0.0914498, w: 0.013453947}
        tangentMode: 0
        weightedMode: 0
        inWeight: {x: 0.33333334, y: 0.33333334, z: 0.33333334, w: 0.33333334}
        outWeight: {x: 0.33333334, y: 0.33333334, z: 0.33333334, w: 0.33333334}
      - serializedVersion: 3
        time: 0.86666673
        value: {x: 0.018690981, y: 0.06852843, z: -0.05701855, w: 0.99584305}
        inSlope: {x: -0.09173764, y: 0.11535634, z: -1.1766324, w: -0.071560465}
        outSlope: {x: -0.09173764, y: 0.11535634, z: -1.1766324, w: -0.071560465}
        tangentMode: 0
        weightedMode: 0
        inWeight: {x: 0.33333334, y: 0.33333334, z: 0.33333334, w: 0.33333334}
        outWeight: {x: 0.33333334, y: 0.33333334, z: 0.33333334, w: 0.33333334}
      - serializedVersion: 3
        time: 0.9666667
        value: {x: 0.012664724, y: 0.07820545, z: -0.14598426, w: 0.9861096}
        inSlope: {x: -0.02505936, y: 0.049971163, z: -0.42573962, w: -0.06372756}
        outSlope: {x: -0.02505936, y: 0.049971163, z: -0.42573962, w: -0.06372756}
        tangentMode: 0
        weightedMode: 0
        inWeight: {x: 0.33333334, y: 0.33333334, z: 0.33333334, w: 0.33333334}
        outWeight: {x: 0.33333334, y: 0.33333334, z: 0.33333334, w: 0.33333334}
      - serializedVersion: 3
        time: 1
        value: {x: 0.012235294, y: 0.07911822, z: -0.15361089, w: 0.9848829}
        inSlope: {x: -0.012882913, y: 0.027383145, z: -0.22879891, w: -0.03680173}
        outSlope: {x: -0.012882913, y: 0.027383145, z: -0.22879891, w: -0.03680173}
        tangentMode: 0
        weightedMode: 0
        inWeight: {x: 0.33333334, y: 0.33333334, z: 0.33333334, w: 0.33333334}
        outWeight: {x: 0.33333334, y: 0.33333334, z: 0.33333334, w: 0.33333334}
      m_PreInfinity: 2
      m_PostInfinity: 2
      m_RotationOrder: 4
    path: Bone001/Bone002
  - curve:
      serializedVersion: 2
      m_Curve:
      - serializedVersion: 3
        time: 0
        value: {x: -0.011167496, y: -0.031418797, z: 0.08448687, w: 0.99586654}
        inSlope: {x: -0.057341266, y: -0.5972852, z: 0.6441785, w: -0.08723616}
        outSlope: {x: -0.057341266, y: -0.5972852, z: 0.6441785, w: -0.08723616}
        tangentMode: 0
        weightedMode: 0
        inWeight: {x: 0.33333334, y: 0.33333334, z: 0.33333334, w: 0.33333334}
        outWeight: {x: 0.33333334, y: 0.33333334, z: 0.33333334, w: 0.33333334}
      - serializedVersion: 3
        time: 0.033333335
        value: {x: -0.013078872, y: -0.051328305, z: 0.10595949, w: 0.99295866}
        inSlope: {x: -0.04454776, y: -0.9581002, z: 1.0129912, w: -0.18292576}
        outSlope: {x: -0.04454776, y: -0.9581002, z: 1.0129912, w: -0.18292576}
        tangentMode: 0
        weightedMode: 0
        inWeight: {x: 0.33333334, y: 0.33333334, z: 0.33333334, w: 0.33333334}
        outWeight: {x: 0.33333334, y: 0.33333334, z: 0.33333334, w: 0.33333334}
      - serializedVersion: 3
        time: 0.10000001
        value: {x: -0.010839613, y: -0.13915381, z: 0.19619244, w: 0.9705809}
        inSlope: {x: 0.09360337, y: -0.95484054, z: 0.95315796, w: -0.30355898}
        outSlope: {x: 0.09360337, y: -0.95484054, z: 0.95315796, w: -0.30355898}
        tangentMode: 0
        weightedMode: 0
        inWeight: {x: 0.33333334, y: 0.33333334, z: 0.33333334, w: 0.33333334}
        outWeight: {x: 0.33333334, y: 0.33333334, z: 0.33333334, w: 0.33333334}
      - serializedVersion: 3
        time: 0.13333334
        value: {x: -0.007897122, y: -0.15894818, z: 0.21556349, w: 0.9634342}
        inSlope: {x: 0.0023900867, y: 0.0783909, z: -0.1025784, w: 0.03139437}
        outSlope: {x: 0.0023900867, y: 0.0783909, z: -0.1025784, w: 0.03139437}
        tangentMode: 0
        weightedMode: 0
        inWeight: {x: 0.33333334, y: 0.33333334, z: 0.33333334, w: 0.33333334}
        outWeight: {x: 0.33333334, y: 0.33333334, z: 0.33333334, w: 0.33333334}
      - serializedVersion: 3
        time: 0.20000002
        value: {x: -0.012497361, y: -0.080438584, z: 0.13306235, w: 0.987759}
        inSlope: {x: -0.007308308, y: 1.5376344, z: -1.5730052, w: 0.34789047}
        outSlope: {x: -0.007308308, y: 1.5376344, z: -1.5730052, w: 0.34789047}
        tangentMode: 0
        weightedMode: 0
        inWeight: {x: 0.33333334, y: 0.33333334, z: 0.33333334, w: 0.33333334}
        outWeight: {x: 0.33333334, y: 0.33333334, z: 0.33333334, w: 0.33333334}
      - serializedVersion: 3
        time: 0.23333335
        value: {x: -0.0111674955, y: -0.031418774, z: 0.08448685, w: 0.99586654}
        inSlope: {x: 0.011342714, y: 1.3081422, z: -1.058598, w: 0.1529199}
        outSlope: {x: 0.011342714, y: 1.3081422, z: -1.058598, w: 0.1529199}
        tangentMode: 0
        weightedMode: 0
        inWeight: {x: 0.33333334, y: 0.33333334, z: 0.33333334, w: 0.33333334}
        outWeight: {x: 0.33333334, y: 0.33333334, z: 0.33333334, w: 0.33333334}
      - serializedVersion: 3
        time: 0.33333334
        value: {x: -0.012234219, y: 0.058037765, z: 0.03991342, w: 0.9974412}
        inSlope: {x: 0.031262994, y: 0.31573406, z: -0.39280903, w: -0.001026392}
        outSlope: {x: 0.031262994, y: 0.31573406, z: -0.39280903, w: -0.001026392}
        tangentMode: 0
        weightedMode: 0
        inWeight: {x: 0.33333334, y: 0.33333334, z: 0.33333334, w: 0.33333334}
        outWeight: {x: 0.33333334, y: 0.33333334, z: 0.33333334, w: 0.33333334}
      - serializedVersion: 3
        time: 0.4666667
        value: {x: -0.0038565556, y: 0.06935593, z: -0.028488077, w: 0.99717766}
        inSlope: {x: 0.06892021, y: 0.045985714, z: -0.53681463, w: -0.018090617}
        outSlope: {x: 0.06892021, y: 0.045985714, z: -0.53681463, w: -0.018090617}
        tangentMode: 0
        weightedMode: 0
        inWeight: {x: 0.33333334, y: 0.33333334, z: 0.33333334, w: 0.33333334}
        outWeight: {x: 0.33333334, y: 0.33333334, z: 0.33333334, w: 0.33333334}
      - serializedVersion: 3
        time: 0.70000005
        value: {x: 0.0040115635, y: 0.069233514, z: -0.091803715, w: 0.9933593}
        inSlope: {x: -0.05129041, y: -0.15659967, z: 0.28287527, w: 0.035584882}
        outSlope: {x: -0.05129041, y: -0.15659967, z: 0.28287527, w: 0.035584882}
        tangentMode: 0
        weightedMode: 0
        inWeight: {x: 0.33333334, y: 0.33333334, z: 0.33333334, w: 0.33333334}
        outWeight: {x: 0.33333334, y: 0.33333334, z: 0.33333334, w: 0.33333334}
      - serializedVersion: 3
        time: 0.90000004
        value: {x: -0.010880965, y: -0.008703491, z: 0.045518458, w: 0.9988663}
        inSlope: {x: -0.021952495, y: -0.39039874, z: 0.6733448, w: -0.0323528}
        outSlope: {x: -0.021952495, y: -0.39039874, z: 0.6733448, w: -0.0323528}
        tangentMode: 0
        weightedMode: 0
        inWeight: {x: 0.33333334, y: 0.33333334, z: 0.33333334, w: 0.33333334}
        outWeight: {x: 0.33333334, y: 0.33333334, z: 0.33333334, w: 0.33333334}
      - serializedVersion: 3
        time: 1
        value: {x: -0.011167496, y: -0.031418797, z: 0.08448687, w: 0.99586654}
        inSlope: {x: 0.0019019954, y: -0.08840821, z: 0.15108652, w: -0.015068664}
        outSlope: {x: 0.0019019954, y: -0.08840821, z: 0.15108652, w: -0.015068664}
        tangentMode: 0
        weightedMode: 0
        inWeight: {x: 0.33333334, y: 0.33333334, z: 0.33333334, w: 0.33333334}
        outWeight: {x: 0.33333334, y: 0.33333334, z: 0.33333334, w: 0.33333334}
      m_PreInfinity: 2
      m_PostInfinity: 2
      m_RotationOrder: 4
    path: Bone001/Bone002/Bone003
  - curve:
      serializedVersion: 2
      m_Curve:
      - serializedVersion: 3
        time: 0
        value: {x: 0.0033360312, y: -0.06356812, z: 0.06390993, w: 0.99592346}
        inSlope: {x: 0, y: 0, z: 0, w: 0}
        outSlope: {x: 0, y: 0, z: 0, w: 0}
        tangentMode: 0
        weightedMode: 0
        inWeight: {x: 0.33333334, y: 0.33333334, z: 0.33333334, w: 0.33333334}
        outWeight: {x: 0.33333334, y: 0.33333334, z: 0.33333334, w: 0.33333334}
      - serializedVersion: 3
        time: 0.06666667
        value: {x: 0.0004493656, y: -0.05884881, z: 0.05688171, w: 0.9966449}
        inSlope: {x: -0.121182956, y: 0.20519093, z: -0.30062965, w: 0.027843114}
        outSlope: {x: -0.121182956, y: 0.20519093, z: -0.30062965, w: 0.027843114}
        tangentMode: 0
        weightedMode: 0
        inWeight: {x: 0.33333334, y: 0.33333334, z: 0.33333334, w: 0.33333334}
        outWeight: {x: 0.33333334, y: 0.33333334, z: 0.33333334, w: 0.33333334}
      - serializedVersion: 3
        time: 0.13333334
        value: {x: -0.0074555026, y: -0.044723675, z: 0.036882676, w: 0.9982905}
        inSlope: {x: 0.003161095, y: 0.08305025, z: 0.11396902, w: -0.001508296}
        outSlope: {x: 0.003161095, y: 0.08305025, z: 0.11396902, w: -0.001508296}
        tangentMode: 0
        weightedMode: 0
        inWeight: {x: 0.33333334, y: 0.33333334, z: 0.33333334, w: 0.33333334}
        outWeight: {x: 0.33333334, y: 0.33333334, z: 0.33333334, w: 0.33333334}
      - serializedVersion: 3
        time: 0.23333335
        value: {x: 0.0038247264, y: -0.043741986, z: 0.093044564, w: 0.9946933}
        inSlope: {x: 0.045264564, y: -0.073224366, z: 0.13894928, w: -0.015129449}
        outSlope: {x: 0.045264564, y: -0.073224366, z: 0.13894928, w: -0.015129449}
        tangentMode: 0
        weightedMode: 0
        inWeight: {x: 0.33333334, y: 0.33333334, z: 0.33333334, w: 0.33333334}
        outWeight: {x: 0.33333334, y: 0.33333334, z: 0.33333334, w: 0.33333334}
      - serializedVersion: 3
        time: 0.33333334
        value: {x: 0.0033360312, y: -0.06356812, z: 0.06390993, w: 0.99592346}
        inSlope: {x: -0.014250238, y: -0.048700258, z: -0.34925985, w: 0.019684734}
        outSlope: {x: -0.014250238, y: -0.048700258, z: -0.34925985, w: 0.019684734}
        tangentMode: 0
        weightedMode: 0
        inWeight: {x: 0.33333334, y: 0.33333334, z: 0.33333334, w: 0.33333334}
        outWeight: {x: 0.33333334, y: 0.33333334, z: 0.33333334, w: 0.33333334}
      - serializedVersion: 3
        time: 0.6333334
        value: {x: 0.01230655, y: 0.002821489, z: -0.038368363, w: 0.9991839}
        inSlope: {x: 0.024815705, y: 0.10534257, z: -0.11489496, w: -0.004626809}
        outSlope: {x: 0.024815705, y: 0.10534257, z: -0.11489496, w: -0.004626809}
        tangentMode: 0
        weightedMode: 0
        inWeight: {x: 0.33333334, y: 0.33333334, z: 0.33333334, w: 0.33333334}
        outWeight: {x: 0.33333334, y: 0.33333334, z: 0.33333334, w: 0.33333334}
      - serializedVersion: 3
        time: 0.9333334
        value: {x: 0.0036439877, y: -0.056380995, z: 0.053188972, w: 0.9969849}
        inSlope: {x: -0.0112219155, y: -0.19463298, z: 0.29134458, w: -0.025716126}
        outSlope: {x: -0.0112219155, y: -0.19463298, z: 0.29134458, w: -0.025716126}
        tangentMode: 0
        weightedMode: 0
        inWeight: {x: 0.33333334, y: 0.33333334, z: 0.33333334, w: 0.33333334}
        outWeight: {x: 0.33333334, y: 0.33333334, z: 0.33333334, w: 0.33333334}
      - serializedVersion: 3
        time: 1
        value: {x: 0.0033360312, y: -0.06356812, z: 0.06390993, w: 0.99592346}
        inSlope: {x: -0.0020223595, y: -0.05808899, z: 0.0864897, w: -0.009067663}
        outSlope: {x: -0.0020223595, y: -0.05808899, z: 0.0864897, w: -0.009067663}
        tangentMode: 0
        weightedMode: 0
        inWeight: {x: 0.33333334, y: 0.33333334, z: 0.33333334, w: 0.33333334}
        outWeight: {x: 0.33333334, y: 0.33333334, z: 0.33333334, w: 0.33333334}
      m_PreInfinity: 2
      m_PostInfinity: 2
      m_RotationOrder: 4
    path: Bone001/Bone002/Bone003/Bone004
  - curve:
      serializedVersion: 2
      m_Curve:
      - serializedVersion: 3
        time: 0
        value: {x: 0.5021147, y: -0.49787682, z: 0.5021141, w: -0.4978765}
        inSlope: {x: 0.53000987, y: 0.5542159, z: 0.5299884, w: 0.55417657}
        outSlope: {x: 0.53000987, y: 0.5542159, z: 0.5299884, w: 0.55417657}
        tangentMode: 0
        weightedMode: 0
        inWeight: {x: 0.33333334, y: 0.33333334, z: 0.33333334, w: 0.33333334}
        outWeight: {x: 0.33333334, y: 0.33333334, z: 0.33333334, w: 0.33333334}
      - serializedVersion: 3
        time: 0.033333335
        value: {x: 0.5197817, y: -0.47940296, z: 0.5197804, w: -0.47940394}
        inSlope: {x: 0.8116901, y: 0.9192891, z: 0.8116472, w: 0.919235}
        outSlope: {x: 0.8116901, y: 0.9192891, z: 0.8116472, w: 0.919235}
        tangentMode: 0
        weightedMode: 0
        inWeight: {x: 0.33333334, y: 0.33333334, z: 0.33333334, w: 0.33333334}
        outWeight: {x: 0.33333334, y: 0.33333334, z: 0.33333334, w: 0.33333334}
      - serializedVersion: 3
        time: 0.06666667
        value: {x: 0.5562274, y: -0.43659088, z: 0.5562239, w: -0.43659416}
        inSlope: {x: 1.0406246, y: 1.3257635, z: 1.0405585, w: 1.325696}
        outSlope: {x: 1.0406246, y: 1.3257635, z: 1.0405585, w: 1.325696}
        tangentMode: 0
        weightedMode: 0
        inWeight: {x: 0.33333334, y: 0.33333334, z: 0.33333334, w: 0.33333334}
        outWeight: {x: 0.33333334, y: 0.33333334, z: 0.33333334, w: 0.33333334}
      - serializedVersion: 3
        time: 0.13333334
        value: {x: 0.6029049, y: -0.36946896, z: 0.6028982, w: -0.36947545}
        inSlope: {x: -0.11469038, y: -0.16923979, z: -0.11468233, w: -0.16923085}
        outSlope: {x: -0.11469038, y: -0.16923979, z: -0.11468233, w: -0.16923085}
        tangentMode: 0
        weightedMode: 0
        inWeight: {x: 0.33333334, y: 0.33333334, z: 0.33333334, w: 0.33333334}
        outWeight: {x: 0.33333334, y: 0.33333334, z: 0.33333334, w: 0.33333334}
      - serializedVersion: 3
        time: 0.16666667
        value: {x: 0.58151066, y: -0.40230137, z: 0.5815055, w: -0.40230626}
        inSlope: {x: -1.1197102, y: -1.5086712, z: -1.1196369, w: -1.508596}
        outSlope: {x: -1.1197102, y: -1.5086712, z: -1.1196369, w: -1.508596}
        tangentMode: 0
        weightedMode: 0
        inWeight: {x: 0.33333334, y: 0.33333334, z: 0.33333334, w: 0.33333334}
        outWeight: {x: 0.33333334, y: 0.33333334, z: 0.33333334, w: 0.33333334}
      - serializedVersion: 3
        time: 0.20000002
        value: {x: 0.52825755, y: -0.47004706, z: 0.5282557, w: -0.47004855}
        inSlope: {x: -1.7152627, y: -1.9276676, z: -1.7151606, w: -1.9275656}
        outSlope: {x: -1.7152627, y: -1.9276676, z: -1.7151606, w: -1.9275656}
        tangentMode: 0
        weightedMode: 0
        inWeight: {x: 0.33333334, y: 0.33333334, z: 0.33333334, w: 0.33333334}
        outWeight: {x: 0.33333334, y: 0.33333334, z: 0.33333334, w: 0.33333334}
      - serializedVersion: 3
        time: 0.23333335
        value: {x: 0.4671598, y: -0.53081256, z: 0.46716142, w: -0.53081065}
        inSlope: {x: -1.3683196, y: -1.2874559, z: -1.3682427, w: -1.2873836}
        outSlope: {x: -1.3683196, y: -1.2874559, z: -1.3682427, w: -1.2873836}
        tangentMode: 0
        weightedMode: 0
        inWeight: {x: 0.33333334, y: 0.33333334, z: 0.33333334, w: 0.33333334}
        outWeight: {x: 0.33333334, y: 0.33333334, z: 0.33333334, w: 0.33333334}
      - serializedVersion: 3
        time: 0.26666668
        value: {x: 0.43703625, y: -0.55587745, z: 0.43703952, w: -0.5558741}
        inSlope: {x: -0.4368693, y: -0.3641725, z: -0.43684605, w: -0.36414924}
        outSlope: {x: -0.4368693, y: -0.3641725, z: -0.43684605, w: -0.36414924}
        tangentMode: 0
        weightedMode: 0
        inWeight: {x: 0.33333334, y: 0.33333334, z: 0.33333334, w: 0.33333334}
        outWeight: {x: 0.33333334, y: 0.33333334, z: 0.33333334, w: 0.33333334}
      - serializedVersion: 3
        time: 0.3
        value: {x: 0.4380352, y: -0.5550907, z: 0.43803835, w: -0.55508727}
        inSlope: {x: 0.05682439, y: 0.044990484, z: 0.056821708, w: 0.0449878}
        outSlope: {x: 0.05682439, y: 0.044990484, z: 0.056821708, w: 0.0449878}
        tangentMode: 0
        weightedMode: 0
        inWeight: {x: 0.33333334, y: 0.33333334, z: 0.33333334, w: 0.33333334}
        outWeight: {x: 0.33333334, y: 0.33333334, z: 0.33333334, w: 0.33333334}
      - serializedVersion: 3
        time: 0.6666667
        value: {x: 0.49870074, y: -0.5012962, z: 0.49870047, w: -0.50129586}
        inSlope: {x: 0.09613755, y: 0.09537402, z: 0.09612548, w: 0.09537625}
        outSlope: {x: 0.09613755, y: 0.09537402, z: 0.09612548, w: 0.09537625}
        tangentMode: 0
        weightedMode: 0
        inWeight: {x: 0.33333334, y: 0.33333334, z: 0.33333334, w: 0.33333334}
        outWeight: {x: 0.33333334, y: 0.33333334, z: 0.33333334, w: 0.33333334}
      - serializedVersion: 3
        time: 0.9666667
        value: {x: 0.5021147, y: -0.49787682, z: 0.5021141, w: -0.4978765}
        inSlope: {x: 0, y: 0, z: 0, w: 0}
        outSlope: {x: 0, y: 0, z: 0, w: 0}
        tangentMode: 0
        weightedMode: 0
        inWeight: {x: 0.33333334, y: 0.33333334, z: 0.33333334, w: 0.33333334}
        outWeight: {x: 0.33333334, y: 0.33333334, z: 0.33333334, w: 0.33333334}
      - serializedVersion: 3
        time: 1
        value: {x: 0.5021147, y: -0.49787682, z: 0.5021141, w: -0.4978765}
        inSlope: {x: 0, y: 0, z: 0, w: 0}
        outSlope: {x: 0, y: 0, z: 0, w: 0}
        tangentMode: 0
        weightedMode: 0
        inWeight: {x: 0.33333334, y: 0.33333334, z: 0.33333334, w: 0.33333334}
        outWeight: {x: 0.33333334, y: 0.33333334, z: 0.33333334, w: 0.33333334}
      m_PreInfinity: 2
      m_PostInfinity: 2
      m_RotationOrder: 4
    path: Head
  m_CompressedRotationCurves: []
  m_EulerCurves: []
  m_PositionCurves:
  - curve:
      serializedVersion: 2
      m_Curve:
      - serializedVersion: 3
        time: 0
        value: {x: -0.002485423, y: 0.8611235, z: 0.0000024533272}
        inSlope: {x: 2.2957072, y: -0.06315209, z: -1.357131}
        outSlope: {x: 2.2957072, y: -0.06315209, z: -1.357131}
        tangentMode: 0
        weightedMode: 0
        inWeight: {x: 0.33333334, y: 0.33333334, z: 0.33333334}
        outWeight: {x: 0.33333334, y: 0.33333334, z: 0.33333334}
      - serializedVersion: 3
        time: 0.033333335
        value: {x: 0.07403815, y: 0.8590187, z: -0.04523526}
        inSlope: {x: -0.121251106, y: -0.32635528, z: -2.4259844}
        outSlope: {x: -0.12125183, y: -0.3263505, z: -2.4259868}
        tangentMode: 0
        weightedMode: 0
        inWeight: {x: 0.33333334, y: 0.33333334, z: 0.33333334}
        outWeight: {x: 0.33333334, y: 0.33333334, z: 0.33333334}
      - serializedVersion: 3
        time: 0.06666667
        value: {x: -0.010568804, y: 0.8393669, z: -0.16172987}
        inSlope: {x: -1.2590454, y: -0.8153728, z: -2.920417}
        outSlope: {x: -1.2590467, y: -0.8153706, z: -2.9204168}
        tangentMode: 0
        weightedMode: 0
        inWeight: {x: 0.33333334, y: 0.33333334, z: 0.33333334}
        outWeight: {x: 0.33333334, y: 0.33333334, z: 0.33333334}
      - serializedVersion: 3
        time: 0.1
        value: {x: -0.0098982705, y: 0.8046605, z: -0.23992975}
        inSlope: {x: 0.72645664, y: -1.0223997, z: -1.0903075}
        outSlope: {x: 0.726456, y: -1.0224035, z: -1.0903119}
        tangentMode: 0
        weightedMode: 0
        inWeight: {x: 0.33333334, y: 0.33333334, z: 0.33333334}
        outWeight: {x: 0.33333334, y: 0.33333334, z: 0.33333334}
      - serializedVersion: 3
        time: 0.13333334
        value: {x: 0.037861645, y: 0.7712074, z: -0.23441714}
        inSlope: {x: 0.8230185, y: -0.011443505, z: 0.2448101}
        outSlope: {x: 0.8230208, y: -0.011458306, z: 0.2448089}
        tangentMode: 0
        weightedMode: 0
        inWeight: {x: 0.33333334, y: 0.33333334, z: 0.33333334}
        outWeight: {x: 0.33333334, y: 0.33333334, z: 0.33333334}
      - serializedVersion: 3
        time: 0.16666667
        value: {x: 0.044969693, y: 0.80389756, z: -0.22360905}
        inSlope: {x: 0.39146417, y: 0.739394, z: 1.2081726}
        outSlope: {x: 0.39146462, y: 0.73941296, z: 1.2081748}
        tangentMode: 0
        weightedMode: 0
        inWeight: {x: 0.33333334, y: 0.33333334, z: 0.33333334}
        outWeight: {x: 0.33333334, y: 0.33333334, z: 0.33333334}
      - serializedVersion: 3
        time: 0.2
        value: {x: 0.063959174, y: 0.82050014, z: -0.1538723}
        inSlope: {x: 0.24587259, y: 0.31613415, z: 3.0495753}
        outSlope: {x: 0.2458712, y: 0.31611913, z: 3.0495849}
        tangentMode: 0
        weightedMode: 0
        inWeight: {x: 0.33333334, y: 0.33333334, z: 0.33333334}
        outWeight: {x: 0.33333334, y: 0.33333334, z: 0.33333334}
      - serializedVersion: 3
        time: 0.23333333
        value: {x: 0.0613611, y: 0.82497185, z: -0.020303957}
        inSlope: {x: -0.59018034, y: 0.0038807318, z: 3.8166835}
        outSlope: {x: -0.5901777, y: 0.0038775944, z: 3.8166704}
        tangentMode: 0
        weightedMode: 0
        inWeight: {x: 0.33333334, y: 0.33333334, z: 0.33333334}
        outWeight: {x: 0.33333334, y: 0.33333334, z: 0.33333334}
      - serializedVersion: 3
        time: 0.26666668
        value: {x: 0.024613827, y: 0.8207594, z: 0.10057276}
        inSlope: {x: -1.143011, y: -0.39807144, z: 3.1928873}
        outSlope: {x: -1.1430168, y: -0.398058, z: 3.1929047}
        tangentMode: 0
        weightedMode: 0
        inWeight: {x: 0.33333334, y: 0.33333334, z: 0.33333334}
        outWeight: {x: 0.33333334, y: 0.33333334, z: 0.33333334}
      - serializedVersion: 3
        time: 0.3
        value: {x: -0.014840116, y: 0.7984344, z: 0.19255653}
        inSlope: {x: -0.8348389, y: -0.5486296, z: 1.8674456}
        outSlope: {x: -0.83484405, y: -0.54864717, z: 1.8674597}
        tangentMode: 0
        weightedMode: 0
        inWeight: {x: 0.33333334, y: 0.33333334, z: 0.33333334}
        outWeight: {x: 0.33333334, y: 0.33333334, z: 0.33333334}
      - serializedVersion: 3
        time: 0.33333334
        value: {x: -0.031042485, y: 0.7841838, z: 0.22507003}
        inSlope: {x: -0.20019147, y: -0.21731344, z: 0.4123925}
        outSlope: {x: -0.20019452, y: -0.21731786, z: 0.41239348}
        tangentMode: 0
        weightedMode: 0
        inWeight: {x: 0.33333334, y: 0.33333334, z: 0.33333334}
        outWeight: {x: 0.33333334, y: 0.33333334, z: 0.33333334}
      - serializedVersion: 3
        time: 0.36666667
        value: {x: -0.028186357, y: 0.7839473, z: 0.22004952}
        inSlope: {x: 0.13523555, y: 0.032773696, z: -0.2511813}
        outSlope: {x: 0.13523664, y: 0.03277369, z: -0.25117674}
        tangentMode: 0
        weightedMode: 0
        inWeight: {x: 0.33333334, y: 0.33333334, z: 0.33333334}
        outWeight: {x: 0.33333334, y: 0.33333334, z: 0.33333334}
      - serializedVersion: 3
        time: 0.43333334
        value: {x: -0.013905432, y: 0.79048294, z: 0.1911771}
        inSlope: {x: 0.25581086, y: 0.13347831, z: -0.572397}
        outSlope: {x: 0.25581118, y: 0.13348125, z: -0.57239664}
        tangentMode: 0
        weightedMode: 0
        inWeight: {x: 0.33333334, y: 0.33333334, z: 0.33333334}
        outWeight: {x: 0.33333334, y: 0.33333334, z: 0.33333334}
      - serializedVersion: 3
        time: 0.46666667
        value: {x: -0.004972551, y: 0.79526854, z: 0.17016467}
        inSlope: {x: 0.2663344, y: 0.1405875, z: -0.66115105}
        outSlope: {x: 0.26633453, y: 0.14058204, z: -0.66114956}
        tangentMode: 0
        weightedMode: 0
        inWeight: {x: 0.33333334, y: 0.33333334, z: 0.33333334}
        outWeight: {x: 0.33333334, y: 0.33333334, z: 0.33333334}
      - serializedVersion: 3
        time: 0.5
        value: {x: 0.003850256, y: 0.79985577, z: 0.14710024}
        inSlope: {x: 0.2528198, y: 0.12578101, z: -0.6930772}
        outSlope: {x: 0.25281897, y: 0.12577753, z: -0.6930766}
        tangentMode: 0
        weightedMode: 0
        inWeight: {x: 0.33333334, y: 0.33333334, z: 0.33333334}
        outWeight: {x: 0.33333334, y: 0.33333334, z: 0.33333334}
      - serializedVersion: 3
        time: 0.6
        value: {x: 0.023868918, y: 0.8081229, z: 0.08543655}
        inSlope: {x: 0.12895396, y: 0.039248835, z: -0.43412605}
        outSlope: {x: 0.12895593, y: 0.0392585, z: -0.4341326}
        tangentMode: 0
        weightedMode: 0
        inWeight: {x: 0.33333334, y: 0.33333334, z: 0.33333334}
        outWeight: {x: 0.33333334, y: 0.33333334, z: 0.33333334}
      - serializedVersion: 3
        time: 0.6333333
        value: {x: 0.027255673, y: 0.8090184, z: 0.073814414}
        inSlope: {x: 0.06930252, y: 0.017612796, z: -0.23784992}
        outSlope: {x: 0.06930216, y: 0.017605575, z: -0.2378466}
        tangentMode: 0
        weightedMode: 0
        inWeight: {x: 0.33333334, y: 0.33333334, z: 0.33333334}
        outWeight: {x: 0.33333334, y: 0.33333334, z: 0.33333334}
      - serializedVersion: 3
        time: 0.6666667
        value: {x: 0.028489074, y: 0.80929625, z: 0.069579974}
        inSlope: {x: 0.034275435, y: 0.011240486, z: 0.0069906674}
        outSlope: {x: 0.03427589, y: 0.011254674, z: 0.0069895354}
        tangentMode: 0
        weightedMode: 0
        inWeight: {x: 0.33333334, y: 0.33333334, z: 0.33333334}
        outWeight: {x: 0.33333334, y: 0.33333334, z: 0.33333334}
      - serializedVersion: 3
        time: 0.7
        value: {x: 0.02954073, y: 0.8097671, z: 0.07428037}
        inSlope: {x: 0.030995587, y: 0.024595227, z: 0.24484567}
        outSlope: {x: 0.03099492, y: 0.024580356, z: 0.24484189}
        tangentMode: 0
        weightedMode: 0
        inWeight: {x: 0.33333334, y: 0.33333334, z: 0.33333334}
        outWeight: {x: 0.33333334, y: 0.33333334, z: 0.33333334}
      - serializedVersion: 3
        time: 0.73333335
        value: {x: 0.030555436, y: 0.8109349, z: 0.08590294}
        inSlope: {x: -0.028645093, y: 0.0415176, z: 0.3773085}
        outSlope: {x: -0.028644677, y: 0.041511677, z: 0.37731254}
        tangentMode: 0
        weightedMode: 0
        inWeight: {x: 0.33333334, y: 0.33333334, z: 0.33333334}
        outWeight: {x: 0.33333334, y: 0.33333334, z: 0.33333334}
      - serializedVersion: 3
        time: 0.76666665
        value: {x: 0.027631104, y: 0.8125352, z: 0.09943447}
        inSlope: {x: -0.18355457, y: 0.05471054, z: 0.34542027}
        outSlope: {x: -0.18355168, y: 0.054699652, z: 0.34541637}
        tangentMode: 0
        weightedMode: 0
        inWeight: {x: 0.33333334, y: 0.33333334, z: 0.33333334}
        outWeight: {x: 0.33333334, y: 0.33333334, z: 0.33333334}
      - serializedVersion: 3
        time: 0.8
        value: {x: 0.018318478, y: 0.81458235, z: 0.10893093}
        inSlope: {x: -0.36524573, y: 0.069021106, z: 0.14734928}
        outSlope: {x: -0.36524957, y: 0.06904673, z: 0.14735208}
        tangentMode: 0
        weightedMode: 0
        inWeight: {x: 0.33333334, y: 0.33333334, z: 0.33333334}
        outWeight: {x: 0.33333334, y: 0.33333334, z: 0.33333334}
      - serializedVersion: 3
        time: 0.8333333
        value: {x: 0.0032812096, y: 0.8171371, z: 0.10925791}
        inSlope: {x: -0.48501763, y: 0.08016386, z: -0.16112778}
        outSlope: {x: -0.48501036, y: 0.08014039, z: -0.16112548}
        tangentMode: 0
        weightedMode: 0
        inWeight: {x: 0.33333334, y: 0.33333334, z: 0.33333334}
        outWeight: {x: 0.33333334, y: 0.33333334, z: 0.33333334}
      - serializedVersion: 3
        time: 0.8666667
        value: {x: -0.014015908, y: 0.81992584, z: 0.098189026}
        inSlope: {x: -0.4878224, y: 0.07761179, z: -0.47343722}
        outSlope: {x: -0.48782766, y: 0.077618144, z: -0.47344172}
        tangentMode: 0
        weightedMode: 0
        inWeight: {x: 0.33333334, y: 0.33333334, z: 0.33333334}
        outWeight: {x: 0.33333334, y: 0.33333334, z: 0.33333334}
      - serializedVersion: 3
        time: 0.9
        value: {x: -0.029240593, y: 0.82231146, z: 0.07769521}
        inSlope: {x: -0.3824309, y: 0.05711685, z: -0.66881025}
        outSlope: {x: -0.3824259, y: 0.057115443, z: -0.66879976}
        tangentMode: 0
        weightedMode: 0
        inWeight: {x: 0.33333334, y: 0.33333334, z: 0.33333334}
        outWeight: {x: 0.33333334, y: 0.33333334, z: 0.33333334}
      - serializedVersion: 3
        time: 0.93333334
        value: {x: -0.039511204, y: 0.8237341, z: 0.0536018}
        inSlope: {x: -0.23003878, y: 0.02826546, z: -0.6587644}
        outSlope: {x: -0.23004165, y: 0.028264314, z: -0.6587705}
        tangentMode: 0
        weightedMode: 0
        inWeight: {x: 0.33333334, y: 0.33333334, z: 0.33333334}
        outWeight: {x: 0.33333334, y: 0.33333334, z: 0.33333334}
      - serializedVersion: 3
        time: 0.96666664
        value: {x: -0.044576682, y: 0.82419616, z: 0.03377724}
        inSlope: {x: -0.0967107, y: 0.00742515, z: -0.41683674}
        outSlope: {x: -0.09670898, y: 0.0074278633, z: -0.41683188}
        tangentMode: 0
        weightedMode: 0
        inWeight: {x: 0.33333334, y: 0.33333334, z: 0.33333334}
        outWeight: {x: 0.33333334, y: 0.33333334, z: 0.33333334}
      - serializedVersion: 3
        time: 1
        value: {x: -0.045958553, y: 0.824229, z: 0.025812835}
        inSlope: {x: -0.04145587, y: 0.0009864799, z: -0.23893093}
        outSlope: {x: -0.04145587, y: 0.0009864799, z: -0.23893093}
        tangentMode: 0
        weightedMode: 0
        inWeight: {x: 0.33333334, y: 0.33333334, z: 0.33333334}
        outWeight: {x: 0.33333334, y: 0.33333334, z: 0.33333334}
      m_PreInfinity: 2
      m_PostInfinity: 2
      m_RotationOrder: 4
    path: Head
  m_ScaleCurves:
  - curve:
      serializedVersion: 2
      m_Curve:
      - serializedVersion: 3
        time: 0
        value: {x: 1, y: 1, z: 1}
        inSlope: {x: 0, y: 0, z: 0}
        outSlope: {x: 0, y: 0, z: 0}
        tangentMode: 0
        weightedMode: 0
        inWeight: {x: 0.33333334, y: 0.33333334, z: 0.33333334}
        outWeight: {x: 0.33333334, y: 0.33333334, z: 0.33333334}
      - serializedVersion: 3
        time: 1
        value: {x: 1, y: 1, z: 1}
        inSlope: {x: 0, y: 0, z: 0}
        outSlope: {x: 0, y: 0, z: 0}
        tangentMode: 0
        weightedMode: 0
        inWeight: {x: 0.33333334, y: 0.33333334, z: 0.33333334}
        outWeight: {x: 0.33333334, y: 0.33333334, z: 0.33333334}
      m_PreInfinity: 2
      m_PostInfinity: 2
      m_RotationOrder: 4
    path: Bone001
  - curve:
      serializedVersion: 2
      m_Curve:
      - serializedVersion: 3
        time: 0
        value: {x: 1, y: 1, z: 1}
        inSlope: {x: -0.000010728835, y: 24.337555, z: 23.398453}
        outSlope: {x: -0.000010728835, y: 24.337555, z: 23.398453}
        tangentMode: 0
        weightedMode: 0
        inWeight: {x: 0.33333334, y: 0.33333334, z: 0.33333334}
        outWeight: {x: 0.33333334, y: 0.33333334, z: 0.33333334}
      - serializedVersion: 3
        time: 0.033333335
        value: {x: 0.99999964, y: 1.8112519, z: 1.7799485}
        inSlope: {x: -0.37799385, y: 9.19964, z: 9.3360195}
        outSlope: {x: -0.37799385, y: 9.19964, z: 9.3360195}
        tangentMode: 0
        weightedMode: 0
        inWeight: {x: 0.33333334, y: 0.33333334, z: 0.33333334}
        outWeight: {x: 0.33333334, y: 0.33333334, z: 0.33333334}
      - serializedVersion: 3
        time: 0.06666667
        value: {x: 0.9748004, y: 1.6133094, z: 1.6224014}
        inSlope: {x: -1.0797883, y: -8.481939, z: -6.7509766}
        outSlope: {x: -1.0797883, y: -8.481939, z: -6.7509766}
        tangentMode: 0
        weightedMode: 0
        inWeight: {x: 0.33333334, y: 0.33333334, z: 0.33333334}
        outWeight: {x: 0.33333334, y: 0.33333334, z: 0.33333334}
      - serializedVersion: 3
        time: 0.10000001
        value: {x: 0.92801374, y: 1.2457892, z: 1.3298833}
        inSlope: {x: -1.0797803, y: -8.481939, z: -6.7509747}
        outSlope: {x: -1.0797803, y: -8.481939, z: -6.7509747}
        tangentMode: 0
        weightedMode: 0
        inWeight: {x: 0.33333334, y: 0.33333334, z: 0.33333334}
        outWeight: {x: 0.33333334, y: 0.33333334, z: 0.33333334}
      - serializedVersion: 3
        time: 0.13333334
        value: {x: 0.90281504, y: 1.0478467, z: 1.1723363}
        inSlope: {x: -0.3779805, y: -2.9691377, z: -2.3632052}
        outSlope: {x: -0.3779805, y: -2.9691377, z: -2.3632052}
        tangentMode: 0
        weightedMode: 0
        inWeight: {x: 0.33333334, y: 0.33333334, z: 0.33333334}
        outWeight: {x: 0.33333334, y: 0.33333334, z: 0.33333334}
      - serializedVersion: 3
        time: 0.16666667
        value: {x: 0.90281504, y: 1.0478467, z: 1.1723363}
        inSlope: {x: 0, y: 0, z: 0}
        outSlope: {x: 0, y: 0, z: 0}
        tangentMode: 0
        weightedMode: 0
        inWeight: {x: 0.33333334, y: 0.33333334, z: 0.33333334}
        outWeight: {x: 0.33333334, y: 0.33333334, z: 0.33333334}
      - serializedVersion: 3
        time: 1
        value: {x: 0.90281504, y: 1.0478467, z: 1.1723363}
        inSlope: {x: 0, y: 0, z: 0}
        outSlope: {x: 0, y: 0, z: 0}
        tangentMode: 0
        weightedMode: 0
        inWeight: {x: 0.33333334, y: 0.33333334, z: 0.33333334}
        outWeight: {x: 0.33333334, y: 0.33333334, z: 0.33333334}
      m_PreInfinity: 2
      m_PostInfinity: 2
      m_RotationOrder: 4
    path: Bone001/Bone002
  - curve:
      serializedVersion: 2
      m_Curve:
      - serializedVersion: 3
        time: 0
        value: {x: 1.0000001, y: 1.0000001, z: 1}
        inSlope: {x: -0.000008940696, y: -11.347872, z: -10.754222}
        outSlope: {x: -0.000008940696, y: -11.347872, z: -10.754222}
        tangentMode: 0
        weightedMode: 0
        inWeight: {x: 0.33333334, y: 0.33333334, z: 0.33333334}
        outWeight: {x: 0.33333334, y: 0.33333334, z: 0.33333334}
      - serializedVersion: 3
        time: 0.033333335
        value: {x: 0.9999998, y: 0.6217377, z: 0.6415259}
        inSlope: {x: 0.4417884, y: -1.297307, z: -4.693931}
        outSlope: {x: 0.4417884, y: -1.297307, z: -4.693931}
        tangentMode: 0
        weightedMode: 0
        inWeight: {x: 0.33333334, y: 0.33333334, z: 0.33333334}
        outWeight: {x: 0.33333334, y: 0.33333334, z: 0.33333334}
      - serializedVersion: 3
        time: 0.06666667
        value: {x: 1.0294527, y: 0.913513, z: 0.68707126}
        inSlope: {x: 1.262073, y: 12.502726, z: 2.12226}
        outSlope: {x: 1.262073, y: 12.502726, z: 2.12226}
        tangentMode: 0
        weightedMode: 0
        inWeight: {x: 0.33333334, y: 0.33333334, z: 0.33333334}
        outWeight: {x: 0.33333334, y: 0.33333334, z: 0.33333334}
      - serializedVersion: 3
        time: 0.10000001
        value: {x: 1.084138, y: 1.4552529, z: 0.78300995}
        inSlope: {x: 1.262074, y: 12.502726, z: 2.7195568}
        outSlope: {x: 1.262074, y: 12.502726, z: 2.7195568}
        tangentMode: 0
        weightedMode: 0
        inWeight: {x: 0.33333334, y: 0.33333334, z: 0.33333334}
        outWeight: {x: 0.33333334, y: 0.33333334, z: 0.33333334}
      - serializedVersion: 3
        time: 0.13333334
        value: {x: 1.113591, y: 1.7470281, z: 0.86837506}
        inSlope: {x: 0.0000017881393, y: 1.4711883, z: 2.190596}
        outSlope: {x: 0.0000017881393, y: 1.4711883, z: 2.190596}
        tangentMode: 0
        weightedMode: 0
        inWeight: {x: 0.33333334, y: 0.33333334, z: 0.33333334}
        outWeight: {x: 0.33333334, y: 0.33333334, z: 0.33333334}
      - serializedVersion: 3
        time: 0.16666667
        value: {x: 1.0841382, y: 1.5533321, z: 0.9290497}
        inSlope: {x: -1.2620703, y: -8.299977, z: 1.6615531}
        outSlope: {x: -1.2620703, y: -8.299977, z: 1.6615531}
        tangentMode: 0
        weightedMode: 0
        inWeight: {x: 0.33333334, y: 0.33333334, z: 0.33333334}
        outWeight: {x: 0.33333334, y: 0.33333334, z: 0.33333334}
      - serializedVersion: 3
        time: 0.20000002
        value: {x: 1.0294529, y: 1.1936961, z: 0.9791453}
        inSlope: {x: -1.2620703, y: -8.299977, z: 1.0642546}
        outSlope: {x: -1.2620703, y: -8.299977, z: 1.0642546}
        tangentMode: 0
        weightedMode: 0
        inWeight: {x: 0.33333334, y: 0.33333334, z: 0.33333334}
        outWeight: {x: 0.33333334, y: 0.33333334, z: 0.33333334}
      - serializedVersion: 3
        time: 0.23333335
        value: {x: 1.0000001, y: 1.0000001, z: 1}
        inSlope: {x: -0.44179204, y: -2.9054406, z: 0.3128207}
        outSlope: {x: -0.44179204, y: -2.9054406, z: 0.3128207}
        tangentMode: 0
        weightedMode: 0
        inWeight: {x: 0.33333334, y: 0.33333334, z: 0.33333334}
        outWeight: {x: 0.33333334, y: 0.33333334, z: 0.33333334}
      - serializedVersion: 3
        time: 0.26666668
        value: {x: 1.0000001, y: 1.0000001, z: 1}
        inSlope: {x: 0, y: 0, z: 0}
        outSlope: {x: 0, y: 0, z: 0}
        tangentMode: 0
        weightedMode: 0
        inWeight: {x: 0.33333334, y: 0.33333334, z: 0.33333334}
        outWeight: {x: 0.33333334, y: 0.33333334, z: 0.33333334}
      - serializedVersion: 3
        time: 1
        value: {x: 1.0000001, y: 1.0000001, z: 1}
        inSlope: {x: 0, y: 0, z: 0}
        outSlope: {x: 0, y: 0, z: 0}
        tangentMode: 0
        weightedMode: 0
        inWeight: {x: 0.33333334, y: 0.33333334, z: 0.33333334}
        outWeight: {x: 0.33333334, y: 0.33333334, z: 0.33333334}
      m_PreInfinity: 2
      m_PostInfinity: 2
      m_RotationOrder: 4
    path: Bone001/Bone002/Bone003
  - curve:
      serializedVersion: 2
      m_Curve:
      - serializedVersion: 3
        time: 0
        value: {x: 0.9999998, y: 0.9999998, z: 1}
        inSlope: {x: 0, y: 0, z: 0}
        outSlope: {x: 0, y: 0, z: 0}
        tangentMode: 0
        weightedMode: 0
        inWeight: {x: 0.33333334, y: 0.33333334, z: 0.33333334}
        outWeight: {x: 0.33333334, y: 0.33333334, z: 0.33333334}
      - serializedVersion: 3
        time: 0.033333335
        value: {x: 0.9999998, y: 0.9999998, z: 1}
        inSlope: {x: 0.012873708, y: -1.9192555, z: -1.6785191}
        outSlope: {x: 0.012873708, y: -1.9192555, z: -1.6785191}
        tangentMode: 0
        weightedMode: 0
        inWeight: {x: 0.33333334, y: 0.33333334, z: 0.33333334}
        outWeight: {x: 0.33333334, y: 0.33333334, z: 0.33333334}
      - serializedVersion: 3
        time: 0.06666667
        value: {x: 1.0008581, y: 0.87204945, z: 0.8880987}
        inSlope: {x: 0.036772188, y: -5.4827414, z: -4.79503}
        outSlope: {x: 0.036772188, y: -5.4827414, z: -4.79503}
        tangentMode: 0
        weightedMode: 0
        inWeight: {x: 0.33333334, y: 0.33333334, z: 0.33333334}
        outWeight: {x: 0.33333334, y: 0.33333334, z: 0.33333334}
      - serializedVersion: 3
        time: 0.10000001
        value: {x: 1.0024513, y: 0.6344837, z: 0.6803313}
        inSlope: {x: 0.036771294, y: -5.4827414, z: -4.795029}
        outSlope: {x: 0.036771294, y: -5.4827414, z: -4.795029}
        tangentMode: 0
        weightedMode: 0
        inWeight: {x: 0.33333334, y: 0.33333334, z: 0.33333334}
        outWeight: {x: 0.33333334, y: 0.33333334, z: 0.33333334}
      - serializedVersion: 3
        time: 0.13333334
        value: {x: 1.0033095, y: 0.5065333, z: 0.56843007}
        inSlope: {x: -0.027410392, y: 4.13089, z: 4.409585}
        outSlope: {x: -0.027410392, y: 4.13089, z: 4.409585}
        tangentMode: 0
        weightedMode: 0
        inWeight: {x: 0.33333334, y: 0.33333334, z: 0.33333334}
        outWeight: {x: 0.33333334, y: 0.33333334, z: 0.33333334}
      - serializedVersion: 3
        time: 0.16666667
        value: {x: 1.000624, y: 0.90987635, z: 0.9743036}
        inSlope: {x: -0.11507568, y: 17.283457, z: 17.391893}
        outSlope: {x: -0.11507568, y: 17.283457, z: 17.391893}
        tangentMode: 0
        weightedMode: 0
        inWeight: {x: 0.33333334, y: 0.33333334, z: 0.33333334}
        outWeight: {x: 0.33333334, y: 0.33333334, z: 0.33333334}
      - serializedVersion: 3
        time: 0.20000002
        value: {x: 0.9956378, y: 1.658764, z: 1.7278899}
        inSlope: {x: -0.11507389, y: 17.283447, z: 17.391884}
        outSlope: {x: -0.11507389, y: 17.283447, z: 17.391884}
        tangentMode: 0
        weightedMode: 0
        inWeight: {x: 0.33333334, y: 0.33333334, z: 0.33333334}
        outWeight: {x: 0.33333334, y: 0.33333334, z: 0.33333334}
      - serializedVersion: 3
        time: 0.23333335
        value: {x: 0.99295235, y: 2.0621064, z: 2.1337628}
        inSlope: {x: -0.012871923, y: 1.9192424, z: 1.6785069}
        outSlope: {x: -0.012871923, y: 1.9192424, z: 1.6785069}
        tangentMode: 0
        weightedMode: 0
        inWeight: {x: 0.33333334, y: 0.33333334, z: 0.33333334}
        outWeight: {x: 0.33333334, y: 0.33333334, z: 0.33333334}
      - serializedVersion: 3
        time: 0.26666668
        value: {x: 0.99477965, y: 1.7867135, z: 1.8397903}
        inSlope: {x: 0.078301735, y: -11.800714, z: -12.5968685}
        outSlope: {x: 0.078301735, y: -11.800714, z: -12.5968685}
        tangentMode: 0
        weightedMode: 0
        inWeight: {x: 0.33333334, y: 0.33333334, z: 0.33333334}
        outWeight: {x: 0.33333334, y: 0.33333334, z: 0.33333334}
      - serializedVersion: 3
        time: 0.3
        value: {x: 0.99817246, y: 1.2753922, z: 1.2939717}
        inSlope: {x: 0.07830263, y: -11.800705, z: -12.596855}
        outSlope: {x: 0.07830263, y: -11.800705, z: -12.596855}
        tangentMode: 0
        weightedMode: 0
        inWeight: {x: 0.33333334, y: 0.33333334, z: 0.33333334}
        outWeight: {x: 0.33333334, y: 0.33333334, z: 0.33333334}
      - serializedVersion: 3
        time: 0.33333334
        value: {x: 0.9999998, y: 0.9999998, z: 1}
        inSlope: {x: 0.02741039, y: -4.1308856, z: -4.409575}
        outSlope: {x: 0.02741039, y: -4.1308856, z: -4.409575}
        tangentMode: 0
        weightedMode: 0
        inWeight: {x: 0.33333334, y: 0.33333334, z: 0.33333334}
        outWeight: {x: 0.33333334, y: 0.33333334, z: 0.33333334}
      - serializedVersion: 3
        time: 0.36666667
        value: {x: 0.9999998, y: 0.9999998, z: 1}
        inSlope: {x: 0, y: 0, z: 0}
        outSlope: {x: 0, y: 0, z: 0}
        tangentMode: 0
        weightedMode: 0
        inWeight: {x: 0.33333334, y: 0.33333334, z: 0.33333334}
        outWeight: {x: 0.33333334, y: 0.33333334, z: 0.33333334}
      - serializedVersion: 3
        time: 1
        value: {x: 0.9999998, y: 0.9999998, z: 1}
        inSlope: {x: 0, y: 0, z: 0}
        outSlope: {x: 0, y: 0, z: 0}
        tangentMode: 0
        weightedMode: 0
        inWeight: {x: 0.33333334, y: 0.33333334, z: 0.33333334}
        outWeight: {x: 0.33333334, y: 0.33333334, z: 0.33333334}
      m_PreInfinity: 2
      m_PostInfinity: 2
      m_RotationOrder: 4
    path: Bone001/Bone002/Bone003/Bone004
  - curve:
      serializedVersion: 2
      m_Curve:
      - serializedVersion: 3
        time: 0
        value: {x: 1, y: 1.0000001, z: 0.99999994}
        inSlope: {x: 0, y: 0, z: 0}
        outSlope: {x: 0, y: 0, z: 0}
        tangentMode: 0
        weightedMode: 0
        inWeight: {x: 0.33333334, y: 0.33333334, z: 0.33333334}
        outWeight: {x: 0.33333334, y: 0.33333334, z: 0.33333334}
      - serializedVersion: 3
        time: 1
        value: {x: 1, y: 1.0000001, z: 0.99999994}
        inSlope: {x: 0, y: 0, z: 0}
        outSlope: {x: 0, y: 0, z: 0}
        tangentMode: 0
        weightedMode: 0
        inWeight: {x: 0.33333334, y: 0.33333334, z: 0.33333334}
        outWeight: {x: 0.33333334, y: 0.33333334, z: 0.33333334}
      m_PreInfinity: 2
      m_PostInfinity: 2
      m_RotationOrder: 4
    path: Head
  m_FloatCurves: []
  m_PPtrCurves: []
  m_SampleRate: 30
  m_WrapMode: 0
  m_Bounds:
    m_Center: {x: 0, y: 0, z: 0}
    m_Extent: {x: 0, y: 0, z: 0}
  m_ClipBindingConstant:
    genericBindings:
    - serializedVersion: 2
      path: 130111906
      attribute: 1
      script: {fileID: 0}
      typeID: 4
      customType: 0
      isPPtrCurve: 0
    - serializedVersion: 2
      path: 928193509
      attribute: 2
      script: {fileID: 0}
      typeID: 4
      customType: 0
      isPPtrCurve: 0
    - serializedVersion: 2
      path: 1102104396
      attribute: 2
      script: {fileID: 0}
      typeID: 4
      customType: 0
      isPPtrCurve: 0
    - serializedVersion: 2
      path: 160701967
      attribute: 2
      script: {fileID: 0}
      typeID: 4
      customType: 0
      isPPtrCurve: 0
    - serializedVersion: 2
      path: 4194786460
      attribute: 2
      script: {fileID: 0}
      typeID: 4
      customType: 0
      isPPtrCurve: 0
    - serializedVersion: 2
      path: 130111906
      attribute: 2
      script: {fileID: 0}
      typeID: 4
      customType: 0
      isPPtrCurve: 0
    - serializedVersion: 2
      path: 1102104396
      attribute: 3
      script: {fileID: 0}
      typeID: 4
      customType: 0
      isPPtrCurve: 0
    - serializedVersion: 2
      path: 160701967
      attribute: 3
      script: {fileID: 0}
      typeID: 4
      customType: 0
      isPPtrCurve: 0
    - serializedVersion: 2
      path: 4194786460
      attribute: 3
      script: {fileID: 0}
      typeID: 4
      customType: 0
      isPPtrCurve: 0
    - serializedVersion: 2
      path: 928193509
      attribute: 3
      script: {fileID: 0}
      typeID: 4
      customType: 0
      isPPtrCurve: 0
    - serializedVersion: 2
      path: 130111906
      attribute: 3
      script: {fileID: 0}
      typeID: 4
      customType: 0
      isPPtrCurve: 0
    pptrCurveMapping: []
  m_AnimationClipSettings:
    serializedVersion: 2
    m_AdditiveReferencePoseClip: {fileID: 0}
    m_AdditiveReferencePoseTime: 0
    m_StartTime: 0
    m_StopTime: 1
    m_OrientationOffsetY: 0
    m_Level: 0
    m_CycleOffset: 0
    m_HasAdditiveReferencePose: 0
    m_LoopTime: 0
    m_LoopBlend: 0
    m_LoopBlendOrientation: 0
    m_LoopBlendPositionY: 0
    m_LoopBlendPositionXZ: 0
    m_KeepOriginalOrientation: 0
    m_KeepOriginalPositionY: 1
    m_KeepOriginalPositionXZ: 0
    m_HeightFromFeet: 0
    m_Mirror: 0
  m_EditorCurves: []
  m_EulerEditorCurves: []
  m_HasGenericRootTransform: 0
  m_HasMotionFloatCurves: 0
  m_Events: []
