%YAML 1.1
%TAG !u! tag:unity3d.com,2011:
--- !u!114 &11400000
MonoBehaviour:
  m_ObjectHideFlags: 0
  m_CorrespondingSourceObject: {fileID: 0}
  m_PrefabInstance: {fileID: 0}
  m_PrefabAsset: {fileID: 0}
  m_GameObject: {fileID: 0}
  m_Enabled: 1
  m_EditorHideFlags: 0
  m_Script: {fileID: 11500000, guid: 508d564868ff4554182b028b35808b8e, type: 3}
  m_Name: DAUQUYBOSS
  m_EditorClassIdentifier: 
  nameMonster: bossdauquy
  id: 101
  basicHP: 10000
  basicATKDamge: 100
  basicMS: 1.5
  basicASMeeleUnit: 0
  basicASRangeUnit: 0
  basicCoolDownMin: 3
  basicCoolDownMax: 3
  raceType: 0
  atkType: 1
  heartDropRate: 100
  heartNumberMin: 2
  heartNumberMax: 2
  goldNumbertMin: 10
  goldNumberMax: 15
  offSetSelectionTop: {x: 0, y: 3.5, z: 0}
  offSetSelectionScaleFoot: {x: 1.5, y: 1.5, z: 1}
