%YAML 1.1
%TAG !u! tag:unity3d.com,2011:
--- !u!114 &11400000
MonoBehaviour:
  m_ObjectHideFlags: 0
  m_CorrespondingSourceObject: {fileID: 0}
  m_PrefabInstance: {fileID: 0}
  m_PrefabAsset: {fileID: 0}
  m_GameObject: {fileID: 0}
  m_Enabled: 1
  m_EditorHideFlags: 0
  m_Script: {fileID: 11500000, guid: 508d564868ff4554182b028b35808b8e, type: 3}
  m_Name: TRUDIEN
  m_EditorClassIdentifier: 
  nameMonster: trudien
  id: 51
  basicHP: 100000000
  basicATKDamge: 100
  basicMS: 0
  basicASMeeleUnit: 0
  basicASRangeUnit: 0
  basicCoolDownMin: 4
  basicCoolDownMax: 4
  raceType: 0
  atkType: 1
  heartDropRate: 2
  heartNumberMin: 1
  heartNumberMax: 1
  goldNumbertMin: 10
  goldNumberMax: 12
  offSetSelectionTop: {x: 0, y: 3.5, z: 0}
  offSetSelectionScaleFoot: {x: 1.5, y: 1.5, z: 1}
  offSetSelectionFx: {x: 0, y: 0.75, z: 0}
