%YAML 1.1
%TAG !u! tag:unity3d.com,2011:
--- !u!114 &11400000
MonoBehaviour:
  m_ObjectHideFlags: 0
  m_CorrespondingSourceObject: {fileID: 0}
  m_PrefabInstance: {fileID: 0}
  m_PrefabAsset: {fileID: 0}
  m_GameObject: {fileID: 0}
  m_Enabled: 1
  m_EditorHideFlags: 0
  m_Script: {fileID: 11500000, guid: 161b04743ce51bc479386b8a96474f6c, type: 3}
  m_Name: BonusStatAsset
  m_EditorClassIdentifier: 
  Maps:
  - Rounds:
    - BonusHP: 12
      BonusATK: 100
      VongQuayMayMan: 0
      ThuongNhanThanBi: 0
      ThoaThuanAcQuy: 0
    - BonusHP: 0
      BonusATK: 0
      VongQuayMayMan: 0
      ThuongNhanThanBi: 0
      ThoaThuanAcQuy: 0
    - BonusHP: 5
      BonusATK: 0
      VongQuayMayMan: 0
      ThuongNhanThanBi: 0
      ThoaThuanAcQuy: 0
    - BonusHP: 0
      BonusATK: 0
      VongQuayMayMan: 0
      ThuongNhanThanBi: 0
      ThoaThuanAcQuy: 0
    - BonusHP: 0
      BonusATK: 0
      VongQuayMayMan: 0
      ThuongNhanThanBi: 0
      ThoaThuanAcQuy: 0
    - BonusHP: 0
      BonusATK: 0
      VongQuayMayMan: 0
      ThuongNhanThanBi: 0
      ThoaThuanAcQuy: 0
    - BonusHP: 0
      BonusATK: 0
      VongQuayMayMan: 0
      ThuongNhanThanBi: 0
      ThoaThuanAcQuy: 0
    - BonusHP: 0
      BonusATK: 0
      VongQuayMayMan: 0
      ThuongNhanThanBi: 0
      ThoaThuanAcQuy: 0
    - BonusHP: 0
      BonusATK: 5
      VongQuayMayMan: 0
      ThuongNhanThanBi: 0
      ThoaThuanAcQuy: 0
    - BonusHP: 0
      BonusATK: 0
      VongQuayMayMan: 0
      ThuongNhanThanBi: 0
      ThoaThuanAcQuy: 0
